%YAML 1.1
%TAG !u! tag:unity3d.com,2011:
--- !u!114 &11400000
MonoBehaviour:
  m_ObjectHideFlags: 0
  m_CorrespondingSourceObject: {fileID: 0}
  m_PrefabInstance: {fileID: 0}
  m_PrefabAsset: {fileID: 0}
  m_GameObject: {fileID: 0}
  m_Enabled: 1
  m_EditorHideFlags: 0
  m_Script: {fileID: 11500000, guid: cb8b9ba692b0b664ba9a2916be441cf3, type: 3}
  m_Name: SOTower_Balanced_06_UziTower
  m_EditorClassIdentifier: 
  bullet: {fileID: 6105638842264956623, guid: aff074600cad2a747b945b3f33262c23, type: 3}
  bulletDamage: 1
  bulletDelay: 0.5
  TowerName: Uzi Tower
  description: Very fast Tower
  range: 13.5
  offset: 0
