mtllib materials.mtl
v -0.002855559 0.05880284 -0.0008927584
v -0.01677771 0.05517447 0.004386604
v -0.01840614 0.05449641 -0.002471924
v -0.00514205 0.05613935 0.01151711
v 0.00174743 0.05616748 0.009878576
v 0.00689968 0.05585265 0.005030334
v 0.008934163 0.05527925 -0.001728654
v 0.007305742 0.05460119 -0.008587062
v 0.002450752 0.0539999 -0.01370746
v -0.004329923 0.05363631 -0.01571769
v -0.0112194 0.0536083 -0.01407915
v -0.01637165 0.05392301 -0.009230793
v -0.02697002 0.04580748 0.01139843
v -0.03009956 0.04457116 -0.001478434
v -0.01779364 0.0468899 0.0209775
v -0.005029212 0.04752827 0.02469206
v 0.00790304 0.04755187 0.02154678
v 0.01753792 0.04695415 0.01238453
v 0.02129379 0.04589522 -0.0003398061
v 0.01816425 0.04465902 -0.01321667
v 0.008987864 0.0435766 -0.02279574
v -0.003776561 0.04293811 -0.0265103
v -0.01670881 0.04291463 -0.02336508
v -0.0263437 0.04351223 -0.01420277
v -0.0316853 0.02423096 0.0156225
v -0.03594124 0.02360916 -0.001785517
v -0.0192918 0.02487612 0.02856565
v -0.002081553 0.02537167 0.03357571
v 0.01533396 0.02558494 0.02931035
v 0.02828826 0.02545869 0.01691234
v 0.03331027 0.02502692 -0.0002961159
v 0.02905434 0.02440512 -0.01770413
v 0.01666083 0.02375996 -0.03064722
v -0.0005494077 0.02326441 -0.03565735
v -0.01796491 0.02305114 -0.03139198
v -0.03091924 0.02317727 -0.01899397
v -0.03471956 0.007069349 0.01856279
v -0.03956705 0.005745411 -0.001199305
v -0.02062269 0.008355975 0.03323978
v -0.001053669 0.009260774 0.03889894
v 0.01874398 0.009541154 0.03402394
v 0.0334655 0.009122133 0.01992106
v 0.03916629 0.008115768 0.000369072
v 0.03431879 0.006791949 -0.01939303
v 0.02022192 0.005505204 -0.03407001
v 0.0006529028 0.004600406 -0.03972918
v -0.01914475 0.004320025 -0.03485423
v -0.03386628 0.004739165 -0.0207513
v -0.03431879 -0.006791949 0.01939303
v -0.03916628 -0.008115768 -0.000369072
v -0.02022192 -0.005505204 0.03407001
v -0.0006529009 -0.004600406 0.03972918
v 0.01914475 -0.004320025 0.03485423
v 0.03386628 -0.004739165 0.0207513
v 0.03956705 -0.005745411 0.001199305
v 0.03471955 -0.007069349 -0.01856279
v 0.02062268 -0.008355975 -0.03323978
v 0.001053671 -0.009260774 -0.03889894
v -0.01874398 -0.009541154 -0.03402394
v -0.03346551 -0.009122133 -0.019921
v -0.02977867 -0.01983392 0.01788419
v -0.03404148 -0.02099812 0.0005056858
v -0.01738209 -0.01870251 0.03079093
v -0.0001733834 -0.01790679 0.03576756
v 0.01723638 -0.01766026 0.03148055
v 0.03018227 -0.01802874 0.01907861
v 0.03519545 -0.01891363 0.001884937
v 0.03093263 -0.02007782 -0.01549357
v 0.01853605 -0.02120936 -0.0284003
v 0.00132735 -0.02200496 -0.03337693
v -0.01608241 -0.02225161 -0.02908993
v -0.02902831 -0.02188301 -0.01668799
v -0.02164681 -0.03048372 0.01421827
v -0.02481078 -0.03134775 0.001319468
v -0.01244572 -0.02964389 0.02379799
v 0.000327046 -0.02905333 0.02749175
v 0.01324905 -0.02887034 0.02430981
v 0.02285784 -0.02914381 0.01510483
v 0.02657875 -0.02980065 0.002343178
v 0.02341478 -0.0306648 -0.01055562
v 0.0142137 -0.03150463 -0.02013534
v 0.001440932 -0.03209507 -0.0238291
v -0.01148107 -0.03227818 -0.02064717
v -0.02108987 -0.03200459 -0.01144218
v -0.01090401 -0.03745663 0.008837402
v -0.01258752 -0.03791642 0.001974106
v -0.006008214 -0.03700984 0.01393467
v 0.0007880302 -0.0366956 0.01590008
v 0.007663679 -0.03659821 0.01420701
v 0.01277641 -0.03674376 0.009309113
v 0.01475627 -0.03709328 0.002518773
v 0.01307275 -0.03755295 -0.004344523
v 0.008176959 -0.03799987 -0.009441793
v 0.001380716 -0.0383141 -0.0114072
v -0.005494933 -0.0384115 -0.009714127
v -0.01060767 -0.03826594 -0.004816234
v 0.001153965 -0.03991187 0.002390623
vn -0.2636567 0.9640618 -0.03271101
vn -0.1863525 0.9670908 0.1732288
vn 0.04787418 0.9747667 0.2180321
vn 0.201107 0.9678819 0.1508663
vn 0.2866772 0.9580142 0.005017851
vn 0.2724008 0.9490384 -0.1585052
vn 0.1782318 0.9433767 -0.2797746
vn 0.04822176 0.9416997 -0.3329811
vn -0.08016077 0.9437101 -0.3209135
vn -0.1839473 0.9487271 -0.257061
vn -0.2488727 0.9558892 -0.1560075
vn -0.6422754 0.7621915 0.08091033
vn -0.4787474 0.7968371 0.3685806
vn -0.1974229 0.819816 0.5375184
vn 0.1288617 0.8298429 0.5429137
vn 0.4179156 0.8216695 0.387564
vn 0.5927637 0.7979231 0.1093158
vn 0.6057093 0.7646114 -0.2201949
vn 0.4502701 0.7304785 -0.5134765
vn 0.1658716 0.7048568 -0.6896837
vn -0.1703926 0.6949791 -0.6985488
vn -0.4653376 0.7036682 -0.536947
vn -0.6376966 0.7284017 -0.2505477
vn -0.9431821 0.2538189 0.2144377
vn -0.7043993 0.2774483 0.6533331
vn -0.2754294 0.3279475 0.9036533
vn 0.2157029 0.3886956 0.8957611
vn 0.6262729 0.4433391 0.6412743
vn 0.8479958 0.4799792 0.2247733
vn 0.8382246 0.4922751 -0.2346165
vn 0.6157103 0.4781062 -0.6263509
vn 0.23585 0.4384159 -0.8672752
vn -0.2223022 0.3790978 -0.8982576
vn -0.6500303 0.3148379 -0.6916198
vn -0.9209952 0.2673088 -0.2833973
vn -0.9533375 0.2037116 0.222821
vn -0.7087063 0.2416897 0.6628132
vn -0.277098 0.2838162 0.9179679
vn 0.222139 0.3183255 0.9215873
vn 0.6550323 0.3352116 0.6771749
vn 0.9096814 0.3297728 0.2524476
vn 0.9215283 0.3039935 -0.2416064
vn 0.6864909 0.265395 -0.6769755
vn 0.2636031 0.2244605 -0.938153
vn -0.2365035 0.1917646 -0.952519
vn -0.6790705 0.1754909 -0.7127877
vn -0.9424471 0.1797358 -0.2819372
vn -0.9709034 -0.01375172 0.2390763
vn -0.7219633 0.0205527 0.691626
vn -0.2795736 0.04934967 0.9588552
vn 0.2377274 0.06492368 0.9691597
vn 0.6913297 0.06310142 0.7197788
vn 0.9596907 0.04437092 0.2775337
vn 0.9709034 0.01375109 -0.2390765
vn 0.7219632 -0.02055302 -0.6916262
vn 0.2795737 -0.0493502 -0.9588551
vn -0.2377274 -0.06492408 -0.9691597
vn -0.6913297 -0.06310166 -0.7197788
vn -0.9596907 -0.0443713 -0.2775336
vn -0.9063782 -0.3439101 0.245366
vn -0.6715291 -0.3115476 0.6722997
vn -0.2541804 -0.2843804 0.9244026
vn 0.2338395 -0.269688 0.9341239
vn 0.6617661 -0.2714074 0.6988589
vn 0.9149369 -0.2890774 0.2816465
vn 0.9255149 -0.3179637 -0.2057216
vn 0.6906657 -0.3503264 -0.6326551
vn 0.2733172 -0.3774934 -0.8847579
vn -0.2147029 -0.3921857 -0.8944793
vn -0.6426295 -0.3904664 -0.6592143
vn -0.8958002 -0.3727963 -0.2420018
vn -0.7361014 -0.6389551 0.2233634
vn -0.5427071 -0.612305 0.5749362
vn -0.1990276 -0.5899334 0.7825386
vn 0.2028486 -0.5778345 0.790544
vn 0.555239 -0.5792503 0.5968072
vn 0.7637209 -0.5938013 0.2532398
vn 0.7724317 -0.6175887 -0.1480996
vn 0.5790373 -0.6442388 -0.4996722
vn 0.2353579 -0.6666104 -0.7072745
vn -0.1665184 -0.6787094 -0.7152798
vn -0.5189088 -0.6772935 -0.5215432
vn -0.7273906 -0.6627424 -0.1779757
vn -0.473363 -0.8635194 0.1739592
vn -0.3456433 -0.8459193 0.4061418
vn -0.1186736 -0.8311448 0.5432448
vn 0.1467298 -0.8231546 0.5485315
vn 0.3794523 -0.8240896 0.4205857
vn 0.517136 -0.8336993 0.1936899
vn 0.5228887 -0.8494088 -0.07135896
vn 0.395169 -0.8670087 -0.3035413
vn 0.1681993 -0.8817832 -0.4406443
vn -0.09720417 -0.8897734 -0.4459311
vn -0.3299266 -0.8888385 -0.3179853
vn -0.4676103 -0.8792288 -0.09108944
vn -0.1459742 -0.9840443 0.1017274
vn -0.1012697 -0.9778839 0.1829962
vn -0.02182552 -0.9727125 0.2309851
vn 0.07107113 -0.9699158 0.2328352
vn 0.1525288 -0.970243 0.1880518
vn 0.2007209 -0.9736067 0.1086331
vn 0.2027345 -0.9791053 0.01586077
vn 0.1580299 -0.9852656 -0.06540802
vn 0.07858582 -0.9904371 -0.1133962
vn -0.01431078 -0.9932337 -0.1152472
vn -0.09576848 -0.9929065 -0.0704632
vn -0.1439606 -0.9895429 0.008954827
vn -0.3205633 0.8551477 0.4073839
vt -0.08557945 0.01186891
vt -0.08564544 0.0103378
vt -0.0849385 0.01037968
vt -0.05564101 0.008078872
vt -0.05672411 0.007378756
vt -0.05563842 0.00654635
vt -0.03547002 -0.02317831
vt -0.03666954 -0.02323027
vt -0.03652291 -0.02392309
vt -0.03421015 -0.04797584
vt -0.03521085 -0.04735284
vt -0.03540945 -0.04803259
vt -0.05127234 -0.06445087
vt -0.05169439 -0.06329201
vt -0.05222674 -0.06375905
vt -0.08014775 -0.06076539
vt -0.07969508 -0.05950199
vt -0.080401 -0.05955833
vt -0.1027516 -0.04235726
vt -0.1015401 -0.04152868
vt -0.1021448 -0.04116023
vt -0.1127434 -0.02366743
vt -0.1111716 -0.02354187
vt -0.1114873 -0.022908
vt -0.1138798 -0.009490339
vt -0.1123437 -0.01008075
vt -0.1123073 -0.009373518
vt -0.1091668 0.000943011
vt -0.1079868 -0.0002264966
vt -0.1076206 0.0003796486
vt -0.09963911 0.008322233
vt -0.09903694 0.006816915
vt -0.09843038 0.007182417
vt -0.08774607 0.06483047
vt -0.08845301 0.06478875
vt -0.08871843 0.06325988
vt -0.08738964 0.06333538
vt -0.04309866 0.06114423
vt -0.04468844 0.06018411
vt -0.04347442 0.05963867
vt -0.004629703 0.03366849
vt -0.006009015 0.03291025
vt -0.005132869 0.03190839
vt 0.02027069 -0.01014225
vt 0.02003493 -0.009474481
vt 0.01847285 -0.009680837
vt 0.01891218 -0.01093716
vt 0.02829616 -0.05762694
vt 0.02832684 -0.05691944
vt 0.0268028 -0.05654299
vt 0.02673975 -0.05787242
vt 0.008666756 -0.1004926
vt 0.009033608 -0.09988688
vt 0.007880229 -0.0988394
vt 0.00718496 -0.09997429
vt -0.0712392 -0.1047709
vt -0.07053775 -0.1046736
vt -0.07045473 -0.1031325
vt -0.0717741 -0.1033075
vt -0.1379904 -0.03053897
vt -0.1375329 -0.03107947
vt -0.1361955 -0.03033705
vt -0.1370491 -0.02931594
vt -0.1470816 0.009550762
vt -0.1469863 0.008849024
vt -0.1454693 0.008743787
vt -0.1456405 0.01006366
vt -0.1462463 0.02254719
vt -0.1464249 0.02186192
vt -0.1450704 0.02117457
vt -0.1447281 0.02246072
vt -0.139825 0.03274304
vt -0.1402391 0.03216856
vt -0.1392311 0.03102427
vt -0.1384485 0.03210081
vt -0.1221295 0.04926885
vt -0.1227401 0.04891018
vt -0.1222843 0.04744234
vt -0.1211347 0.04811306
vt -0.0914759 0.1130791
vt -0.0928032 0.1129818
vt -0.09273625 0.1107342
vt -0.0909581 0.1109653
vt 0.009219716 0.127728
vt 0.008114317 0.1284691
vt 0.006604041 0.1266906
vt 0.00813557 0.125758
vt 0.06813179 0.08226903
vt 0.06735429 0.08334924
vt 0.06518485 0.08231063
vt 0.06626017 0.0808757
vt 0.09424443 0.02632661
vt 0.09367351 0.02752886
vt 0.09128854 0.0269882
vt 0.09204159 0.02536084
vt 0.1069267 -0.02522834
vt 0.1065317 -0.02395742
vt 0.1040919 -0.02412592
vt 0.1045631 -0.025856
vt 0.110668 -0.0682549
vt 0.1105164 -0.06693277
vt 0.1081193 -0.0667031
vt 0.108234 -0.06849249
vt 0.0280064 -0.1426076
vt 0.02892419 -0.141644
vt 0.0275014 -0.1397826
vt 0.02619969 -0.1410156
vt -0.1446831 0.0475967
vt -0.1445181 0.04627614
vt -0.1422543 0.04635992
vt -0.1424056 0.04814659
vt -0.1442174 0.05184294
vt -0.1444247 0.05052828
vt -0.1422646 0.05014689
vt -0.141953 0.05191274
vt -0.146756 0.04142653
vt -0.1472461 0.04018914
vt -0.1452281 0.03945883
vt -0.1445824 0.04113169
vt -0.1489074 0.03523601
vt -0.1496622 0.03413988
vt -0.1478514 0.03300197
vt -0.1468867 0.03451343
vt -0.1424971 0.05495377
vt -0.143556 0.05414753
vt -0.142213 0.05243512
vt -0.1408456 0.05359504
vt -0.09148151 0.1131673
vt -0.09325884 0.1129296
vt -0.09317803 0.111164
vt -0.09114977 0.111374
vt 0.01265822 0.1281182
vt 0.01114638 0.1290824
vt 0.01006903 0.1277391
vt 0.01175833 0.1265971
vt 0.07176532 0.08273576
vt 0.07071256 0.08418734
vt 0.06922723 0.08336071
vt 0.07039689 0.08169043
vt 0.09992036 0.02956967
vt 0.09916069 0.03119395
vt 0.09754074 0.03065708
vt 0.09840062 0.02880815
vt 0.1175642 -0.0145361
vt 0.1169802 -0.01284073
vt 0.1152859 -0.01323664
vt 0.1159742 -0.01515604
vt 0.1339363 -0.03407189
vt 0.1333688 -0.03237092
vt 0.1316307 -0.03280222
vt 0.1323218 -0.0347206
vt 0.1295598 0.07619198
vt 0.1279841 0.07704787
vt 0.1270162 0.0754759
vt 0.1288351 0.07455428
vt -0.1016899 0.1123169
vt -0.1024369 0.1106868
vt -0.1007466 0.1098388
vt -0.09994513 0.1117138
vt -0.1264268 0.07487635
vt -0.127049 0.07319461
vt -0.1252718 0.07248382
vt -0.1245948 0.07440723
vt -0.1380311 0.04446603
vt -0.1387403 0.04281909
vt -0.1370097 0.0420145
vt -0.1362062 0.04388861
vt -0.1458633 0.02867929
vt -0.1467803 0.02713837
vt -0.1452102 0.02611267
vt -0.144144 0.02785081
vt -0.1436668 0.04821687
vt -0.1449822 0.04699822
vt -0.1438294 0.04558503
vt -0.1422995 0.04693314
vt -0.09780526 0.1135598
vt -0.09982044 0.1132484
vt -0.09960827 0.1118755
vt -0.0975931 0.1121869
vt 0.04295462 0.1345018
vt 0.04147476 0.1359046
vt 0.04051905 0.1348964
vt 0.0419989 0.1334936
vt 0.09812917 0.08516981
vt 0.0971374 0.08695146
vt 0.0959236 0.0862758
vt 0.09691537 0.08449414
vt 0.1218949 0.03936859
vt 0.1210394 0.04121954
vt 0.1197783 0.0406367
vt 0.1206339 0.03878575
vt 0.1376347 0.0102654
vt 0.1367046 0.01208001
vt 0.1354684 0.01144635
vt 0.1363985 0.009631744
vt 0.1476212 0.02071671
vt 0.1463258 0.02229145
vt 0.145253 0.02140891
vt 0.1465484 0.01983417
vt 0.09982037 0.1132484
vt 0.09780519 0.1135598
vt 0.09759302 0.1121869
vt 0.09960821 0.1118755
vt -0.04147475 0.1359046
vt -0.0429546 0.1345018
vt -0.04199889 0.1334936
vt -0.04051903 0.1348964
vt -0.09713733 0.08695147
vt -0.0981291 0.08516981
vt -0.09691531 0.08449414
vt -0.09592354 0.0862758
vt -0.1210393 0.04121953
vt -0.1218948 0.03936858
vt -0.1206338 0.03878574
vt -0.1197783 0.04063669
vt -0.1367046 0.01207999
vt -0.1376347 0.01026538
vt -0.1363984 0.009631719
vt -0.1354683 0.01144634
vt -0.1463258 0.02229139
vt -0.1476212 0.02071664
vt -0.1465484 0.01983411
vt -0.145253 0.02140884
vt -0.1358755 0.05810439
vt -0.1375583 0.05695275
vt -0.1366753 0.05588029
vt -0.1351955 0.05689302
vt 0.1128093 0.09954984
vt 0.1122009 0.1014961
vt 0.1109169 0.1009659
vt 0.1114519 0.09925438
vt 0.1315342 0.06742391
vt 0.130947 0.06937663
vt 0.1296573 0.06886038
vt 0.1301737 0.06714319
vt 0.141368 0.04162914
vt 0.1405907 0.04351426
vt 0.1393583 0.04287308
vt 0.1400419 0.04121533
vt 0.1472442 0.03110181
vt 0.1461393 0.03281561
vt 0.145043 0.03196248
vt 0.1460146 0.03045538
vt 0.1410618 0.05311154
vt 0.1394616 0.05437534
vt 0.1387005 0.05321322
vt 0.1401077 0.05210185
vt 0.09167086 0.1071153
vt 0.08964053 0.1073042
vt 0.08963479 0.1059151
vt 0.09142023 0.105749
vt 0.001999232 0.1204749
vt 0.0002476482 0.119431
vt 0.001061724 0.1183053
vt 0.002602037 0.1192234
vt -0.0583509 0.07964186
vt -0.05957392 0.07801025
vt -0.05839296 0.07727871
vt -0.05731745 0.07871352
vt -0.0903305 0.02681645
vt -0.09118224 0.02496376
vt -0.08987363 0.02449751
vt -0.08912463 0.02612674
vt -0.1102776 -0.01866814
vt -0.1109032 -0.02060887
vt -0.1095485 -0.02091642
vt -0.1089983 -0.01920977
vt -0.1272848 -0.04238598
vt -0.1278454 -0.04434651
vt -0.1264811 -0.04460867
vt -0.1259882 -0.04288461
vt 0.04927715 -0.1245646
vt 0.05101092 -0.1250223
vt 0.05113708 -0.1236388
vt 0.04985023 -0.1232991
vt 0.1455566 -0.001237964
vt 0.1463278 0.0003808879
vt 0.1449917 0.0007613591
vt 0.1444193 -0.0004401951
vt 0.1469657 0.02774884
vt 0.1469543 0.02954195
vt 0.145586 0.02930212
vt 0.1455945 0.02797122
vt 0.1471019 0.03018546
vt 0.1465645 0.0318962
vt 0.1453269 0.03126523
vt 0.1457257 0.02999547
vt 0.143715 0.03573621
vt 0.1426826 0.03720237
vt 0.1416956 0.03622475
vt 0.1424619 0.03513653
vt 0.1279617 0.05631452
vt 0.1264494 0.05727803
vt 0.1259083 0.05599856
vt 0.1270308 0.05528343
vt 0.08748592 0.08365993
vt 0.08569743 0.08378913
vt 0.08582924 0.08240621
vt 0.08715671 0.08231031
vt 0.02914057 0.08641098
vt 0.02751943 0.08564464
vt 0.0283138 0.08450498
vt 0.02951706 0.08507378
vt -0.01965924 0.05457922
vt -0.0208273 0.05321869
vt -0.01963742 0.05250174
vt -0.01877045 0.05351155
vt -0.04976293 0.005557853
vt -0.05043467 0.003895281
vt -0.04907802 0.003596395
vt -0.04857943 0.004830403
vt -0.06402738 -0.04604165
vt -0.06419212 -0.04782722
vt -0.06280685 -0.04772292
vt -0.06268458 -0.04639763
vt -0.05688053 -0.09560068
vt -0.05637882 -0.0973222
vt -0.05512837 -0.09671705
vt -0.05550076 -0.09543928
vt 0.0702609 -0.08638489
vt 0.07158311 -0.08653691
vt 0.07142843 -0.08515637
vt 0.07072489 -0.08507548
vt 0.1177516 -0.04668175
vt 0.1187827 -0.04584025
vt 0.1176855 -0.04498823
vt 0.1171369 -0.04543599
vt 0.133619 -0.01125252
vt 0.1339959 -0.009976061
vt 0.1326093 -0.009891347
vt 0.1324088 -0.01057053
vt 0.1349768 0.008450001
vt 0.1347464 0.009760819
vt 0.1334669 0.009219706
vt 0.1335895 0.008522234
vt 0.1283603 0.02284411
vt 0.1276119 0.02394467
vt 0.1266674 0.02292588
vt 0.1270657 0.02234028
vt 0.1120721 0.03737783
vt 0.1109266 0.03805543
vt 0.1105053 0.03673166
vt 0.1111148 0.03637112
vt 0.08428247 0.04771515
vt 0.08295437 0.04780174
vt 0.083177 0.04643052
vt 0.08388367 0.04638444
vt 0.04978574 0.04366878
vt 0.04856453 0.04313961
vt 0.04938851 0.04202119
vt 0.0500383 0.04230275
vt 0.01891657 0.02115299
vt 0.01804504 0.02014711
vt 0.01927214 0.0194959
vt 0.01973587 0.02003112
vt -0.0005609192 -0.0141508
vt -0.0009415321 -0.01542615
vt 0.0004448096 -0.01551494
vt 0.000647331 -0.01483635
vt -0.003850986 -0.05316649
vt -0.003648302 -0.05448189
vt -0.002357673 -0.05396797
vt -0.002465521 -0.05326806
vt 0.01736454 -0.0850011
vt 0.01822441 -0.08601698
vt 0.0190566 -0.08490465
vt 0.01859908 -0.08436411
vt 0.07676612 -0.04369341
vt 0.07747208 -0.04374939
vt 0.07722528 -0.0423823
vt 0.0904002 -0.03627369
vt 0.09102204 -0.03593485
vt 0.09006838 -0.03492472
vt 0.09950799 -0.02486509
vt 0.09985669 -0.02424872
vt 0.09851317 -0.02389548
vt 0.1025438 -0.01343505
vt 0.1025348 -0.01272694
vt 0.1011961 -0.0130981
vt 0.09982181 -0.004080764
vt 0.09947111 -0.00346553
vt 0.09847945 -0.004438384
vt 0.09221026 0.002070407
vt 0.09160957 0.002445484
vt 0.09119844 0.001118528
vt 0.08112134 0.003773445
vt 0.08041476 0.003820759
vt 0.08067831 0.002456801
vt 0.0688753 -9.108229E-05
vt 0.0682299 -0.0003825787
vt 0.06910553 -0.001461059
vt 0.05849049 -0.009439488
vt 0.05805998 -0.01000177
vt 0.05934181 -0.01053725
vt 0.05292292 -0.02230683
vt 0.05281563 -0.02300683
vt 0.05419708 -0.02286034
vt 0.05429797 -0.0350733
vt 0.05455295 -0.03573398
vt 0.05567867 -0.03491998
vt 0.06305277 -0.04333838
vt 0.06361505 -0.0437689
vt 0.06415055 -0.04248708
vt -0.03158347 0.03941204
vt -0.02998456 0.04035688
vt -0.03108268 0.04117282
o group1393061619
g mesh1393061619
usemtl mat18
f 3/3/1 2/2/1 1/1/1
f 2/6/2 4/5/2 1/4/2
f 5/12/4 6/11/4 1/10/4
f 7/18/6 8/17/6 1/16/6
f 8/21/7 9/20/7 1/19/7
f 9/24/8 10/23/8 1/22/8
f 11/30/10 12/29/10 1/28/10
f 13/40/13 15/39/13 2/38/13
f 16/47/15 17/46/15 5/45/15 4/44/15
f 18/55/17 19/54/17 7/53/17 6/52/17
f 20/63/19 21/62/19 9/61/19 8/60/19
f 22/71/21 23/70/21 11/69/21 10/68/21
f 24/79/23 14/78/23 3/77/23 12/76/23
f 26/83/24 25/82/24 13/81/24 14/80/24
f 27/91/26 28/90/26 16/89/26 15/88/26
f 29/99/28 30/98/28 18/97/28 17/96/28
f 31/107/30 32/106/30 20/105/30 19/104/30
f 33/115/32 34/114/32 22/113/32 21/112/32
f 35/123/34 36/122/34 24/121/34 23/120/34
f 37/135/37 39/134/37 27/133/37 25/132/37
f 40/143/39 41/142/39 29/141/39 28/140/39
f 42/151/41 43/150/41 31/149/41 30/148/41
f 44/159/43 45/158/43 33/157/43 32/156/43
f 46/167/45 47/166/45 35/165/45 34/164/45
f 48/175/47 38/174/47 26/173/47 36/172/47
f 50/179/48 49/178/48 37/177/48 38/176/48
f 51/187/50 52/186/50 40/185/50 39/184/50
f 53/195/52 54/194/52 42/193/52 41/192/52
f 55/203/54 56/202/54 44/201/54 43/200/54
f 57/211/56 58/210/56 46/209/56 45/208/56
f 59/219/58 60/218/58 48/217/58 47/216/58
f 61/231/61 63/230/61 51/229/61 49/228/61
f 64/239/63 65/238/63 53/237/63 52/236/63
f 66/247/65 67/246/65 55/245/65 54/244/65
f 68/255/67 69/254/67 57/253/67 56/252/67
f 70/263/69 71/262/69 59/261/69 58/260/69
f 72/271/71 62/270/71 50/269/71 60/268/71
f 74/275/72 73/274/72 61/273/72 62/272/72
f 75/283/74 76/282/74 64/281/74 63/280/74
f 77/291/76 78/290/76 66/289/76 65/288/76
f 79/299/78 80/298/78 68/297/78 67/296/78
f 81/307/80 82/306/80 70/305/80 69/304/80
f 83/315/82 84/314/82 72/313/82 71/312/82
f 85/327/85 87/326/85 75/325/85 73/324/85
f 88/335/87 89/334/87 77/333/87 76/332/87
f 90/343/89 91/342/89 79/341/89 78/340/89
f 92/351/91 93/350/91 81/349/91 80/348/91
f 94/359/93 95/358/93 83/357/93 82/356/93
f 96/367/95 86/366/95 74/365/95 84/364/95
f 97/370/96 85/369/96 86/368/96
f 97/376/98 88/375/98 87/374/98
f 97/382/100 90/381/100 89/380/100
f 97/388/102 92/387/102 91/386/102
f 97/394/104 94/393/104 93/392/104
f 97/400/106 96/399/106 95/398/106
usemtl mat9
f 4/9/3 5/8/3 1/7/3
f 6/15/5 7/14/5 1/13/5
f 10/27/9 11/26/9 1/25/9
f 12/33/11 3/32/11 1/31/11
f 49/183/49 51/182/49 39/181/49 37/180/49
f 52/191/51 53/190/51 41/189/51 40/188/51
f 54/199/53 55/198/53 43/197/53 42/196/53
f 56/207/55 57/206/55 45/205/55 44/204/55
f 58/215/57 59/214/57 47/213/57 46/212/57
f 60/223/59 50/222/59 38/221/59 48/220/59
f 62/227/60 61/226/60 49/225/60 50/224/60
f 63/235/62 64/234/62 52/233/62 51/232/62
f 65/243/64 66/242/64 54/241/64 53/240/64
f 67/251/66 68/250/66 56/249/66 55/248/66
f 69/259/68 70/258/68 58/257/68 57/256/68
f 71/267/70 72/266/70 60/265/70 59/264/70
usemtl mat5
f 14/37/12 13/36/12 2/35/12 3/34/12
f 15/43/14 16/42/14 4/41/14
f 17/51/16 18/50/16 6/49/16 5/48/16
f 19/59/18 20/58/18 8/57/18 7/56/18
f 21/67/20 22/66/20 10/65/20 9/64/20
f 23/75/22 24/74/22 12/73/22 11/72/22
f 4/406/108 2/405/108 15/404/108
usemtl mat12
f 25/87/25 27/86/25 15/85/25 13/84/25
f 28/95/27 29/94/27 17/93/27 16/92/27
f 30/103/29 31/102/29 19/101/29 18/100/29
f 32/111/31 33/110/31 21/109/31 20/108/31
f 34/119/33 35/118/33 23/117/33 22/116/33
f 36/127/35 26/126/35 14/125/35 24/124/35
usemtl mat8
f 38/131/36 37/130/36 25/129/36 26/128/36
f 39/139/38 40/138/38 28/137/38 27/136/38
f 41/147/40 42/146/40 30/145/40 29/144/40
f 43/155/42 44/154/42 32/153/42 31/152/42
f 45/163/44 46/162/44 34/161/44 33/160/44
f 47/171/46 48/170/46 36/169/46 35/168/46
usemtl mat2
f 73/279/73 75/278/73 63/277/73 61/276/73
f 76/287/75 77/286/75 65/285/75 64/284/75
f 78/295/77 79/294/77 67/293/77 66/292/77
f 80/303/79 81/302/79 69/301/79 68/300/79
f 82/311/81 83/310/81 71/309/81 70/308/81
f 84/319/83 74/318/83 62/317/83 72/316/83
usemtl mat7
f 86/323/84 85/322/84 73/321/84 74/320/84
f 87/331/86 88/330/86 76/329/86 75/328/86
f 89/339/88 90/338/88 78/337/88 77/336/88
f 91/347/90 92/346/90 80/345/90 79/344/90
f 93/355/92 94/354/92 82/353/92 81/352/92
f 95/363/94 96/362/94 84/361/94 83/360/94
usemtl mat25
f 97/373/97 87/372/97 85/371/97
f 97/379/99 89/378/99 88/377/99
f 97/385/101 91/384/101 90/383/101
f 97/391/103 93/390/103 92/389/103
f 97/397/105 95/396/105 94/395/105
f 97/403/107 86/402/107 96/401/107
