%YAML 1.1
%TAG !u! tag:unity3d.com,2011:
--- !u!114 &11400000
MonoBehaviour:
  m_ObjectHideFlags: 0
  m_CorrespondingSourceObject: {fileID: 0}
  m_PrefabInstance: {fileID: 0}
  m_PrefabAsset: {fileID: 0}
  m_GameObject: {fileID: 0}
  m_Enabled: 1
  m_EditorHideFlags: 0
  m_Script: {fileID: 11500000, guid: 05f77a9c6f724eb418417b2aab91e12a, type: 3}
  m_Name: Level5_Wave7
  m_EditorClassIdentifier: 
  groups:
  - enemyType: {fileID: 6093326317144121101, guid: c64e4babda820e14280e18f6b47b7e3c,
      type: 3}
    numberOfEnemies: 15
    delayBetweenSpawns: 1.5
    pauseDelayAfterGroup: 7
  - enemyType: {fileID: 7137200483085553000, guid: 5597db781bd50084fa8cff071c1792b9,
      type: 3}
    numberOfEnemies: 2
    delayBetweenSpawns: 7
    pauseDelayAfterGroup: 15
  - enemyType: {fileID: 7798620149837737290, guid: 0642d9763ccd5c542a3503e42fac5204,
      type: 3}
    numberOfEnemies: 25
    delayBetweenSpawns: 0.5
    pauseDelayAfterGroup: 0
