%YAML 1.1
%TAG !u! tag:unity3d.com,2011:
--- !u!114 &11400000
MonoBehaviour:
  m_ObjectHideFlags: 0
  m_CorrespondingSourceObject: {fileID: 0}
  m_PrefabInstance: {fileID: 0}
  m_PrefabAsset: {fileID: 0}
  m_GameObject: {fileID: 0}
  m_Enabled: 1
  m_EditorHideFlags: 0
  m_Script: {fileID: 11500000, guid: 05f77a9c6f724eb418417b2aab91e12a, type: 3}
  m_Name: Wave9
  m_EditorClassIdentifier: 
  groups:
  - enemyType: {fileID: 7075404265872009993, guid: 1ab14c7d9f03f2a4e901ea01fa1a64d6,
      type: 3}
    numberOfEnemies: 15
    delayBetweenSpawns: 1
    pauseDelayAfterGroup: 5
  - enemyType: {fileID: 1656713210178009651, guid: 56a6d49c186e4d4469a106d0d40c9778,
      type: 3}
    numberOfEnemies: 8
    delayBetweenSpawns: 1
    pauseDelayAfterGroup: 5
  - enemyType: {fileID: 1298129915724616971, guid: 1af9f3f76f376914fac73cc97f2e8ff9,
      type: 3}
    numberOfEnemies: 2
    delayBetweenSpawns: 8
    pauseDelayAfterGroup: 10
