%YAML 1.1
%TAG !u! tag:unity3d.com,2011:
--- !u!114 &11400000
MonoBehaviour:
  m_ObjectHideFlags: 0
  m_CorrespondingSourceObject: {fileID: 0}
  m_PrefabInstance: {fileID: 0}
  m_PrefabAsset: {fileID: 0}
  m_GameObject: {fileID: 0}
  m_Enabled: 1
  m_EditorHideFlags: 0
  m_Script: {fileID: 11500000, guid: 074de27ddd79d3a46be9cacfc486e56e, type: 3}
  m_Name: Tower03_Machinegun
  m_EditorClassIdentifier: 
  imageButton: {fileID: 21300000, guid: 05a27c87eeb906e48971bfb7511ac366, type: 3}
  title: Canon Tower
  description: 1 Damage / 1 Second
  price: 15
  tower: {fileID: 4217532607288708602, guid: 9428c9d4ce0bcb1458ec76ddce573624, type: 3}
  towerGhost: {fileID: 7229470886834863535, guid: 136cae09959c5844281e3660da5d2580,
    type: 3}
