# This file uses meters as units for non-parametric coordinates.

mtllib Chimney 3.mtl
g default
v 92.862488 334.336304 -97.862488
v -92.862488 334.336304 -97.862503
v -0.000000 465.663696 -5.000000
v 92.862488 334.336304 87.862503
v -92.862488 334.336304 87.862488
v 74.000000 334.336304 -79.000000
v 66.000000 334.336304 -79.000000
v 66.000000 334.336304 -71.000000
v 74.000000 334.336304 -71.000000
v -74.000000 334.336304 -71.000000
v -66.000000 334.336304 -71.000000
v -66.000000 334.336304 -79.000000
v -74.000000 334.336304 -79.000000
v 66.000000 334.336304 61.000000
v 66.000000 334.336304 69.000000
v 74.000000 334.336304 69.000000
v 74.000000 334.336304 61.000000
v -74.000000 334.336304 61.000000
v -74.000000 334.336304 69.000000
v -66.000000 334.336304 69.000000
v -66.000000 334.336304 61.000000
v -63.750000 133.194092 58.750000
v 63.750000 133.194092 58.750000
v 63.750000 133.194092 -68.750000
v -63.750000 133.194092 -68.750000
v 14.795715 133.194092 40.536591
v -14.795746 133.194092 40.536591
v -38.735748 133.194092 23.143156
v -47.880005 133.194092 -5.000004
v -38.735748 133.194092 -33.143162
v -14.795746 133.194092 -50.536591
v 14.795746 133.194092 -50.536591
v 38.735748 133.194092 -33.143158
v 47.880005 133.194092 -5.000000
v 38.735748 133.194092 23.143166
v -75.000000 271.577393 70.000000
v 75.000000 271.577393 70.000000
v 75.000000 271.577393 -80.000000
v -75.000000 271.577393 -80.000000
v -67.135620 174.839844 7.093750
v -68.787598 195.160156 7.093750
v -68.787598 195.160156 -47.093750
v -67.135620 174.839844 -47.093750
v -97.814056 271.577393 92.814056
v 97.814026 271.577393 92.814056
v 97.814026 271.577393 -102.814056
v -97.814056 271.577393 -102.814056
v -57.090637 174.839844 7.093750
v -57.090637 195.160156 7.093750
v -57.090637 195.160156 -47.093750
v -57.090637 174.839844 -47.093750
v -97.814056 223.288696 92.814056
v 97.814026 223.288696 92.814056
v 97.814026 223.288696 -102.814056
v -97.814056 223.288696 -102.814056
v -75.000000 223.288696 70.000000
v 75.000000 223.288696 70.000000
v 75.000000 223.288696 -80.000000
v -75.000000 223.288696 -80.000000
v -75.000000 -80.000000 70.000000
v 75.000000 -80.000000 70.000000
v 75.000000 75.160156 -59.317398
v 75.000000 75.160156 -80.000000
v 75.000000 -80.000000 -80.000000
v 75.000000 54.839844 -80.000000
v 75.000000 54.839844 -59.317398
v 75.000000 5.160156 -47.093750
v 75.000000 -15.160156 -47.093750
v 75.000000 -15.160156 7.093750
v 75.000000 5.160156 7.093750
v 28.967224 54.839844 -80.000000
v -75.000000 -80.000000 -80.000000
v 28.967224 75.160156 -80.000000
v -6.032776 100.160156 -80.000000
v -6.032776 79.839844 -80.000000
v 48.154724 79.839844 -80.000000
v 48.154724 100.160156 -80.000000
v -31.032776 75.160156 -80.000000
v -31.032776 54.839844 -80.000000
v 23.154724 54.839844 -80.000000
v 23.154724 75.160156 -80.000000
v -75.000000 195.160156 -47.093750
v -75.000000 195.160156 7.093750
v -75.000000 174.839844 7.093750
v -75.000000 174.839844 -47.093750
v -86.250000 -98.750000 81.250000
v 86.250000 -98.750000 81.250000
v 83.154724 75.160156 -59.317398
v 83.154724 75.160156 -85.136139
v 28.967224 75.160156 -85.136139
v 86.250000 -98.750000 -91.250000
v 28.967224 54.839844 -85.136139
v 83.154724 54.839844 -85.136139
v 83.154724 54.839844 -59.317398
v 82.909363 5.160156 -47.093750
v 82.909363 -15.160156 -47.093750
v 82.909363 -15.160156 7.093750
v 82.909363 5.160156 7.093750
v -86.250000 -98.750000 -91.250000
v -31.032776 75.160156 -85.136139
v -31.032776 54.839844 -85.136139
v 23.154724 54.839844 -85.136139
v 23.154724 75.160156 -85.136139
v -6.032776 100.160156 -85.136139
v -6.032776 79.839844 -85.136139
v 48.154724 79.839844 -85.136139
v 48.154724 100.160156 -85.136139
v -82.909363 195.160156 -47.093750
v -82.909363 195.160156 7.093750
v -82.909363 174.839844 7.093750
v -82.909363 174.839844 -47.093750
v -75.000000 -117.499939 70.000000
v 75.000000 -117.499939 70.000000
v 75.000000 -117.499939 -80.000000
v -75.000000 -117.499939 -80.000000
v -75.000000 -389.839844 70.000000
v -26.845276 -389.839844 70.000000
v -26.845276 -410.160156 70.000000
v -75.000000 -410.160156 70.000000
v -75.000000 -485.000000 70.000000
v 75.000000 -485.000000 70.000000
v -26.032776 -139.839844 70.000000
v 28.154724 -139.839844 70.000000
v 28.154724 -160.160156 70.000000
v -26.032776 -160.160156 70.000000
v 75.000000 -485.000000 -80.000000
v -75.000000 -485.000000 -80.000000
v -26.032776 -269.839844 -80.000000
v -26.032776 -290.160156 -80.000000
v 28.154724 -290.160156 -80.000000
v 28.154724 -269.839844 -80.000000
v -75.000000 -389.839844 49.863861
v -75.000000 -410.160156 49.863861
v -75.000000 -264.839844 -7.093750
v -75.000000 -264.839844 47.093750
v -75.000000 -285.160156 47.093750
v -75.000000 -285.160156 -7.093750
v -75.000000 -234.839844 -31.647408
v -75.000000 -234.839844 22.540092
v -75.000000 -255.160156 22.540092
v -75.000000 -255.160156 -31.647408
v -81.032776 -389.839844 49.863861
v -81.032776 -389.839844 75.682617
v -26.845276 -389.839844 75.682617
v -26.845276 -410.160156 75.682617
v -81.032776 -410.160156 75.682617
v -81.032776 -410.160156 49.863861
v -26.032776 -139.839844 75.682617
v 28.154724 -139.839844 75.682617
v 28.154724 -160.160156 75.682617
v -26.032776 -160.160156 75.682617
v -26.032776 -269.839844 -85.136139
v -26.032776 -290.160156 -85.136139
v 28.154724 -290.160156 -85.136139
v 28.154724 -269.839844 -85.136139
v -87.030670 -234.839844 -31.647408
v -87.030670 -234.839844 22.540092
v -87.030670 -255.160156 22.540092
v -87.030670 -255.160156 -31.647408
v -82.909363 -264.839844 -7.093750
v -82.909363 -264.839844 47.093750
v -82.909363 -285.160156 47.093750
v -82.909363 -285.160156 -7.093750
v -74.000000 260.719971 61.000000
v -74.000000 260.719971 69.000000
v -66.000000 260.719971 69.000000
v -66.000000 260.719971 61.000000
v 66.000000 260.719971 61.000000
v 66.000000 260.719971 69.000000
v 74.000000 260.719971 69.000000
v 74.000000 260.719971 61.000000
v -74.000000 260.719971 -71.000000
v -66.000000 260.719971 -71.000000
v -66.000000 260.719971 -79.000000
v -74.000000 260.719971 -79.000000
v 66.000000 260.719971 -71.000000
v 74.000000 260.719971 -71.000000
v 74.000000 260.719971 -79.000000
v 66.000000 260.719971 -79.000000
v 10.357025 133.194092 -36.875612
v -10.357025 133.194092 -36.875612
v -27.115021 133.194092 -24.700212
v -33.515991 133.194092 -5.000004
v -27.115021 133.194092 14.700207
v -10.357025 133.194092 26.875608
v 10.356995 133.194092 26.875612
v 27.115021 133.194092 14.700216
v 33.515991 133.194092 -5.000000
v 27.115021 133.194092 -24.700211
v 33.515991 300.493164 -5.000000
v 27.115021 300.493164 -24.700211
v 10.357025 300.493164 -36.875612
v -10.357025 300.493164 -36.875612
v -27.115021 300.493164 -24.700212
v -33.515991 300.493164 -5.000004
v -27.115021 300.493164 14.700207
v -10.357025 300.493164 26.875608
v 10.356995 300.493164 26.875612
v 27.115021 300.493164 14.700216
v 47.880005 300.493164 -5.000000
v 38.735748 300.493164 -33.143158
v 14.795746 300.493164 -50.536591
v -14.795746 300.493164 -50.536591
v -38.735748 300.493164 -33.143162
v -47.880005 300.493164 -5.000004
v -38.735748 300.493164 23.143156
v -14.795746 300.493164 40.536591
v 14.795715 300.493164 40.536591
v 38.735748 300.493164 23.143166
vt 0.596088 0.613112
vt 0.721092 0.613112
vt 0.721092 0.738115
vt 0.596088 0.738115
vt 0.732121 0.749145
vt 0.585058 0.749145
vt 0.585058 0.602082
vt 0.732121 0.602082
vt 0.730101 0.939644
vt 0.730101 0.792581
vt 0.752468 0.770214
vt 0.752468 0.962011
vt 0.583038 0.792581
vt 0.560671 0.770214
vt 0.583038 0.939644
vt 0.560671 0.962011
vt 0.583038 0.792581
vt 0.583038 0.939644
vt 0.560671 0.962012
vt 0.560671 0.770214
vt 0.730101 0.939644
vt 0.752468 0.962012
vt 0.730101 0.792581
vt 0.752468 0.770214
vt 0.774870 0.054957
vt 0.967559 0.054957
vt 0.967559 0.527050
vt 0.774870 0.527050
vt 0.982011 0.551136
vt 0.760418 0.551136
vt 0.967559 0.575223
vt 0.774870 0.575223
vt 0.967559 0.964829
vt 0.774870 0.964829
vt 0.774870 0.054957
vt 0.967559 0.054957
vt 0.967559 0.527050
vt 0.774870 0.527050
vt 0.982011 0.551136
vt 0.760418 0.551136
vt 0.967559 0.575223
vt 0.774870 0.575223
vt 0.967559 0.964829
vt 0.774870 0.964829
vt 0.729998 0.160934
vt 0.729998 0.352732
vt 0.682654 0.352732
vt 0.682654 0.160934
vt 0.682654 0.352732
vt 0.682654 0.160934
vt 0.729998 0.160934
vt 0.729998 0.352732
vt 0.729824 0.520888
vt 0.729824 0.373825
vt 0.594150 0.384855
vt 0.594150 0.509858
vt 0.729824 0.373825
vt 0.729824 0.520888
vt 0.594150 0.509858
vt 0.594150 0.384855
vt 0.774870 0.054957
vt 0.967560 0.054957
vt 0.967560 0.527050
vt 0.774870 0.527050
vt 0.982011 0.551136
vt 0.760418 0.551136
vt 0.967560 0.575223
vt 0.774870 0.575223
vt 0.967560 0.964829
vt 0.774870 0.964829
vt 0.967559 0.527050
vt 0.774870 0.527050
vt 0.774870 0.054957
vt 0.967559 0.054957
vt 0.982011 0.551136
vt 0.760418 0.551136
vt 0.967559 0.575223
vt 0.774870 0.575223
vt 0.967559 0.964829
vt 0.774870 0.964829
vt 0.729998 0.160934
vt 0.729998 0.352732
vt 0.682654 0.352732
vt 0.682654 0.160934
vt 0.682654 0.352732
vt 0.682654 0.160934
vt 0.729998 0.160934
vt 0.729998 0.352732
vt 0.729824 0.520888
vt 0.729824 0.373825
vt 0.594150 0.384855
vt 0.594150 0.509858
vt 0.729824 0.373825
vt 0.729824 0.520888
vt 0.594150 0.509858
vt 0.594150 0.384855
vt 0.023396 0.015757
vt 0.060422 0.093467
vt 0.023396 0.093467
vt 0.060422 0.093467
vt 0.023396 0.093467
vt 0.060422 0.015757
vt 0.027338 0.015757
vt 0.056480 0.015757
vt 0.056480 0.015757
vt 0.056480 0.093467
vt 0.027338 0.093467
vt 0.027338 0.015757
vt 0.027338 0.073126
vt 0.056480 0.073126
vt 0.027338 0.073126
vt 0.027338 0.036099
vt 0.056480 0.036099
vt 0.056480 0.073126
vt 0.056480 0.024409
vt 0.027338 0.024409
vt 0.052273 0.084816
vt 0.023396 0.084816
vt 0.052273 0.015757
vt 0.031545 0.084816
vt 0.031545 0.015757
vt 0.060422 0.084816
vt 0.027338 0.064976
vt 0.056480 0.064976
vt 0.941693 0.151097
vt 0.967559 0.151097
vt 0.967559 0.177201
vt 0.941693 0.177201
vt 0.836729 0.177201
vt 0.774870 0.177201
vt 0.774870 0.151097
vt 0.836729 0.151097
vt 0.023396 0.015757
vt 0.023396 0.093467
vt 0.060422 0.093467
vt 0.060422 0.015757
vt 0.056480 0.015757
vt 0.056480 0.093467
vt 0.027338 0.093467
vt 0.027338 0.015757
vt 0.027338 0.073126
vt 0.056480 0.073126
vt 0.027338 0.073126
vt 0.056480 0.073126
vt 0.049080 0.093467
vt 0.049080 0.015757
vt 0.027338 0.061783
vt 0.056480 0.061783
vt 0.034739 0.015757
vt 0.034739 0.093467
vt 0.027338 0.061783
vt 0.056480 0.061783
vt 0.868525 0.311673
vt 0.938134 0.311673
vt 0.938134 0.337776
vt 0.868525 0.337776
vt 0.023396 0.015757
vt 0.023396 0.093467
vt 0.060422 0.093467
vt 0.060422 0.015757
vt 0.056480 0.015757
vt 0.056480 0.093467
vt 0.027338 0.093467
vt 0.027338 0.015757
vt 0.027338 0.073126
vt 0.056480 0.073126
vt 0.027338 0.073126
vt 0.056480 0.073126
vt 0.043169 0.093467
vt 0.043169 0.015757
vt 0.027338 0.055872
vt 0.056480 0.055872
vt 0.040649 0.015757
vt 0.040649 0.093467
vt 0.027338 0.055872
vt 0.056480 0.055872
vt 0.836983 0.350211
vt 0.906593 0.350211
vt 0.906593 0.376315
vt 0.836983 0.376314
vt 0.023396 0.015757
vt 0.023396 0.093467
vt 0.060422 0.093467
vt 0.060422 0.015757
vt 0.056480 0.015757
vt 0.056480 0.093467
vt 0.027338 0.093467
vt 0.027338 0.015757
vt 0.027338 0.073126
vt 0.056480 0.073126
vt 0.027338 0.073126
vt 0.056480 0.073126
vt 0.052273 0.093467
vt 0.052273 0.015757
vt 0.027338 0.064976
vt 0.056480 0.064976
vt 0.031545 0.015757
vt 0.031545 0.093467
vt 0.027338 0.064976
vt 0.056480 0.064976
vt 0.837773 0.472248
vt 0.907382 0.472248
vt 0.907382 0.498352
vt 0.837773 0.498352
vt 0.060422 0.015757
vt 0.060422 0.093467
vt 0.023396 0.093467
vt 0.023396 0.015757
vt 0.027338 0.093467
vt 0.027338 0.015757
vt 0.056480 0.015757
vt 0.056480 0.093467
vt 0.027338 0.036099
vt 0.056480 0.036099
vt 0.027338 0.036099
vt 0.056480 0.036099
vt 0.034739 0.015757
vt 0.034739 0.093467
vt 0.056480 0.047442
vt 0.027338 0.047442
vt 0.049080 0.093467
vt 0.049080 0.015757
vt 0.056480 0.047442
vt 0.027338 0.047442
vt 0.855679 0.684620
vt 0.855679 0.658516
vt 0.925288 0.658516
vt 0.925288 0.684620
vt 0.023396 0.015757
vt 0.060422 0.015757
vt 0.060422 0.093467
vt 0.023396 0.093467
vt 0.023396 0.015757
vt 0.060422 0.015757
vt 0.027338 0.093467
vt 0.027338 0.015757
vt 0.056480 0.015757
vt 0.056480 0.093467
vt 0.056480 0.093467
vt 0.027338 0.093467
vt 0.027338 0.073126
vt 0.027338 0.036099
vt 0.056480 0.036099
vt 0.056480 0.073126
vt 0.027338 0.036099
vt 0.056480 0.036099
vt 0.027338 0.081773
vt 0.056480 0.081773
vt 0.030762 0.027452
vt 0.060422 0.027452
vt 0.030762 0.093467
vt 0.056480 0.043465
vt 0.027338 0.043465
vt 0.053057 0.027452
vt 0.053057 0.093467
vt 0.023396 0.027452
vt 0.940990 0.748439
vt 0.967560 0.748439
vt 0.967559 0.774542
vt 0.940991 0.774542
vt 0.834003 0.774542
vt 0.774870 0.774542
vt 0.774870 0.748439
vt 0.834003 0.748439
vt 0.060422 0.015757
vt 0.060422 0.093467
vt 0.023396 0.093467
vt 0.023396 0.015757
vt 0.027338 0.093467
vt 0.027338 0.015757
vt 0.056480 0.015757
vt 0.056480 0.093467
vt 0.027338 0.036099
vt 0.056480 0.036099
vt 0.027338 0.036099
vt 0.056480 0.036099
vt 0.030762 0.015757
vt 0.030762 0.093467
vt 0.056480 0.043465
vt 0.027338 0.043465
vt 0.053057 0.093467
vt 0.053057 0.015757
vt 0.056480 0.043465
vt 0.027338 0.043465
vt 0.841470 0.774542
vt 0.841470 0.748439
vt 0.911079 0.748439
vt 0.911079 0.774542
vt 0.060422 0.015757
vt 0.060422 0.093467
vt 0.023396 0.093467
vt 0.023396 0.015757
vt 0.027338 0.093467
vt 0.027338 0.015757
vt 0.056480 0.015757
vt 0.056480 0.093467
vt 0.027338 0.036099
vt 0.056480 0.036099
vt 0.027338 0.036099
vt 0.056480 0.036099
vt 0.030762 0.015757
vt 0.030762 0.093467
vt 0.056480 0.043465
vt 0.027338 0.043465
vt 0.053057 0.093467
vt 0.053057 0.015757
vt 0.056480 0.043465
vt 0.027338 0.043465
vt 0.809355 0.806657
vt 0.809355 0.780554
vt 0.878964 0.780554
vt 0.878964 0.806657
vt 0.060422 0.015757
vt 0.060422 0.093467
vt 0.023396 0.093467
vt 0.023396 0.015757
vt 0.027338 0.093467
vt 0.027338 0.015757
vt 0.056480 0.015757
vt 0.056480 0.093467
vt 0.027338 0.036099
vt 0.056480 0.036099
vt 0.027338 0.036099
vt 0.056480 0.036099
vt 0.030762 0.015757
vt 0.030762 0.093467
vt 0.056480 0.043465
vt 0.027338 0.043465
vt 0.053057 0.093467
vt 0.053057 0.015757
vt 0.056480 0.043465
vt 0.027338 0.043465
vt 0.835047 0.331353
vt 0.835047 0.305250
vt 0.904656 0.305250
vt 0.904656 0.331353
vt 0.023396 0.015757
vt 0.060422 0.015757
vt 0.060422 0.093467
vt 0.023396 0.093467
vt 0.060422 0.093467
vt 0.023396 0.093467
vt 0.023396 0.015757
vt 0.060422 0.015757
vt 0.027338 0.093467
vt 0.027338 0.015757
vt 0.056480 0.015757
vt 0.056480 0.093467
vt 0.056480 0.015757
vt 0.056480 0.093467
vt 0.027338 0.093467
vt 0.027338 0.015757
vt 0.027338 0.073126
vt 0.027338 0.036099
vt 0.056480 0.036099
vt 0.056480 0.073126
vt 0.027338 0.073126
vt 0.027338 0.036099
vt 0.056480 0.036099
vt 0.056480 0.073126
vt 0.034739 0.015757
vt 0.034739 0.093467
vt 0.027338 0.061783
vt 0.056480 0.061783
vt 0.049080 0.093467
vt 0.049080 0.015757
vt 0.027338 0.061783
vt 0.056480 0.061783
vt 0.037801 0.015757
vt 0.037801 0.093467
vt 0.056480 0.050505
vt 0.027338 0.052874
vt 0.043648 0.093467
vt 0.043648 0.015757
vt 0.056480 0.052874
vt 0.027338 0.050505
vt 0.817141 0.902591
vt 0.886750 0.902591
vt 0.886750 0.928695
vt 0.817141 0.928695
vt 0.634980 0.406087
vt 0.654903 0.406087
vt 0.654903 0.459213
vt 0.634980 0.459213
vt 0.692293 0.088777
vt 0.684660 0.088777
vt 0.684660 0.081145
vt 0.692293 0.081145
vt 0.664463 0.043690
vt 0.672096 0.043690
vt 0.664463 0.043690
vt 0.672096 0.043690
vt 0.664463 0.043690
vt 0.672096 0.043690
vt 0.664463 0.043690
vt 0.672096 0.043690
vt 0.692293 0.088777
vt 0.684660 0.088777
vt 0.684660 0.081145
vt 0.692293 0.081145
vt 0.664463 0.043690
vt 0.672096 0.043690
vt 0.664463 0.043690
vt 0.672096 0.043690
vt 0.664463 0.043690
vt 0.672096 0.043690
vt 0.664463 0.043690
vt 0.672096 0.043690
vt 0.692293 0.088777
vt 0.684660 0.088777
vt 0.684660 0.081145
vt 0.692293 0.081145
vt 0.664463 0.043690
vt 0.672096 0.043690
vt 0.664463 0.043690
vt 0.672096 0.043690
vt 0.664463 0.043690
vt 0.672096 0.043690
vt 0.664463 0.043690
vt 0.672096 0.043690
vt 0.692293 0.088777
vt 0.684660 0.088777
vt 0.684660 0.081145
vt 0.692293 0.081145
vt 0.664463 0.043690
vt 0.672096 0.043690
vt 0.664463 0.043690
vt 0.672096 0.043690
vt 0.664463 0.043690
vt 0.672096 0.043690
vt 0.664463 0.043690
vt 0.672096 0.043690
vt 0.611687 0.233182
vt 0.602193 0.230097
vt 0.602193 0.223175
vt 0.615756 0.227582
vt 0.592700 0.233182
vt 0.588631 0.227582
vt 0.617555 0.241258
vt 0.624138 0.239119
vt 0.586832 0.241258
vt 0.580249 0.239119
vt 0.617555 0.251240
vt 0.624138 0.253379
vt 0.586832 0.251240
vt 0.580249 0.253379
vt 0.611687 0.259316
vt 0.615756 0.264916
vt 0.592700 0.259316
vt 0.588631 0.264916
vt 0.602193 0.262401
vt 0.602193 0.269323
vt 0.647178 0.265162
vt 0.637684 0.265162
vt 0.656672 0.265162
vt 0.656672 0.265162
vt 0.647178 0.265162
vt 0.637684 0.265162
vt 0.660740 0.265162
vt 0.647178 0.265162
vt 0.633615 0.265162
vt 0.647178 0.265162
vt 0.633615 0.265162
vt 0.660740 0.265162
vt 0.660245 0.265162
vt 0.652169 0.265162
vt 0.642187 0.265162
vt 0.634111 0.265162
vt 0.660245 0.265162
vt 0.652169 0.265162
vt 0.642187 0.265162
vt 0.634111 0.265162
vt 0.640048 0.265162
vt 0.628511 0.265162
vt 0.654308 0.265162
vt 0.665845 0.265162
vt 0.640048 0.265162
vt 0.628511 0.265162
vt 0.654308 0.265162
vt 0.665845 0.265162
vt 0.633615 0.184539
vt 0.647178 0.184539
vt 0.654308 0.184539
vt 0.665845 0.184539
vt 0.640048 0.184539
vt 0.654308 0.184539
vt 0.628511 0.184539
vt 0.640048 0.184539
vt 0.647178 0.184539
vt 0.660740 0.184539
vt 0.633615 0.184539
vt 0.647178 0.184539
vt 0.654308 0.184539
vt 0.665845 0.184539
vt 0.640048 0.184539
vt 0.654308 0.184539
vt 0.628511 0.184539
vt 0.640048 0.184539
vt 0.647178 0.184539
vt 0.660740 0.184539
vt 0.647178 0.184539
vt 0.656672 0.184539
vt 0.634111 0.184539
vt 0.642187 0.184539
vt 0.642187 0.184539
vt 0.652169 0.184539
vt 0.652169 0.184539
vt 0.660245 0.184539
vt 0.637684 0.184539
vt 0.647178 0.184539
vt 0.647178 0.184539
vt 0.656672 0.184539
vt 0.634111 0.184539
vt 0.642187 0.184539
vt 0.642187 0.184539
vt 0.652169 0.184539
vt 0.652169 0.184539
vt 0.660245 0.184539
vt 0.637684 0.184539
vt 0.647178 0.184539
vt 0.685174 0.694928
vt 0.691450 0.675613
vt 0.685174 0.656299
vt 0.668744 0.644362
vt 0.648436 0.644362
vt 0.632006 0.656299
vt 0.625730 0.675613
vt 0.632006 0.694928
vt 0.648436 0.706865
vt 0.668744 0.706865
vt 0.696567 0.648021
vt 0.705532 0.675613
vt 0.696567 0.703205
vt 0.673096 0.720258
vt 0.644084 0.720258
vt 0.620613 0.703205
vt 0.611647 0.675613
vt 0.620613 0.648021
vt 0.644084 0.630968
vt 0.673096 0.630968
vt 0.226017 0.107853
vt 0.168514 0.107853
vt 0.168514 0.050350
vt 0.226017 0.050350
vt 0.142331 0.144177
vt 0.248294 0.144177
vt 0.195313 0.219104
vt 0.248294 0.144177
vt 0.142331 0.144177
vt 0.195313 0.219104
vt 0.248294 0.144177
vt 0.142331 0.144177
vt 0.195313 0.219104
vt 0.142331 0.144177
vt 0.248294 0.144177
vt 0.195313 0.219104
vt 0.174354 0.099536
vt 0.176831 0.099536
vt 0.176831 0.102013
vt 0.174354 0.102013
vt 0.220177 0.102013
vt 0.217700 0.102013
vt 0.217700 0.099536
vt 0.220177 0.099536
vt 0.174354 0.058667
vt 0.174354 0.056190
vt 0.176831 0.056190
vt 0.176831 0.058667
vt 0.217700 0.058667
vt 0.217700 0.056190
vt 0.220177 0.056190
vt 0.220177 0.058667
vt 0.664463 0.113927
vt 0.672096 0.113927
vt 0.664463 0.113927
vt 0.672096 0.113927
vt 0.664463 0.113927
vt 0.672096 0.113927
vt 0.664463 0.113927
vt 0.672096 0.113927
vt 0.664463 0.113927
vt 0.672096 0.113927
vt 0.664463 0.113927
vt 0.672096 0.113927
vt 0.664463 0.113927
vt 0.672096 0.113927
vt 0.664463 0.113927
vt 0.672096 0.113927
vt 0.664463 0.113927
vt 0.672096 0.113927
vt 0.664463 0.113927
vt 0.672096 0.113927
vt 0.664463 0.113927
vt 0.672096 0.113927
vt 0.664463 0.113927
vt 0.672096 0.113927
vt 0.664463 0.113927
vt 0.672096 0.113927
vt 0.664463 0.113927
vt 0.672096 0.113927
vt 0.664463 0.113927
vt 0.672096 0.113927
vt 0.664463 0.113927
vt 0.672096 0.113927
vn 0.000000 0.577350 -0.816497
vn 0.000000 0.577350 -0.816497
vn 0.000000 0.577350 -0.816497
vn 0.816497 0.577350 0.000000
vn 0.816497 0.577350 0.000000
vn 0.816497 0.577350 0.000000
vn -0.000000 0.577350 0.816497
vn -0.000000 0.577350 0.816497
vn -0.000000 0.577350 0.816497
vn -0.816497 0.577350 0.000000
vn -0.816497 0.577350 0.000000
vn -0.816497 0.577350 0.000000
vn 0.000000 -1.000000 -0.000001
vn 0.000000 -1.000000 -0.000001
vn 0.000000 -1.000000 0.000000
vn 0.000000 -1.000000 -0.000003
vn 0.000000 -1.000000 0.000000
vn 0.000000 -1.000000 0.000007
vn 0.000000 -1.000000 0.000001
vn 0.000000 -1.000000 0.000001
vn 0.000000 -1.000000 -0.000001
vn 0.000000 -1.000000 0.000001
vn 0.000000 -1.000000 -0.000007
vn 0.000000 -1.000000 -0.000000
vn 0.000000 -1.000000 -0.000000
vn 0.000000 -1.000000 0.000000
vn 0.000000 -1.000000 0.000000
vn 0.000000 -1.000000 0.000000
vn 0.000000 -1.000000 -0.000013
vn 0.000000 -1.000000 -0.000000
vn 0.000000 -1.000000 0.000000
vn 0.000000 -1.000000 0.000001
vn 0.000000 1.000000 -0.000001
vn 0.000000 1.000000 -0.000001
vn 0.000000 1.000000 -0.000001
vn 0.000000 1.000000 -0.000000
vn 0.000000 1.000000 -0.000008
vn 0.000000 1.000000 0.000000
vn 0.000000 1.000000 0.000000
vn 0.000000 1.000000 0.000001
vn 0.000000 1.000000 0.000001
vn 0.000000 1.000000 0.000001
vn 0.000000 1.000000 0.000000
vn 0.000000 1.000000 0.000000
vn 0.000000 1.000000 0.000000
vn 0.000000 1.000000 0.000000
vn 0.000000 0.081029 -0.996712
vn 0.000000 0.081029 -0.996712
vn 0.000000 0.081029 -0.996712
vn 0.000000 0.081029 -0.996712
vn -0.996712 0.081029 0.000000
vn -0.996712 0.081029 0.000000
vn -0.996712 0.081029 0.000000
vn -0.996712 0.081029 0.000000
vn 0.000000 0.081029 0.996712
vn 0.000000 0.081029 0.996712
vn 0.000000 0.081029 0.996712
vn 0.000000 0.081029 0.996712
vn 0.996712 0.081028 0.000000
vn 0.996712 0.081028 0.000000
vn 0.996712 0.081028 0.000000
vn 0.996712 0.081028 -0.000000
vn 0.996712 0.081029 0.000000
vn 0.996712 0.081029 0.000000
vn 0.996712 0.081029 0.000000
vn 0.996712 0.081028 -0.000000
vn 0.000000 1.000000 0.000001
vn 0.000000 1.000000 0.000000
vn 0.000000 1.000000 0.000001
vn 0.000000 1.000000 0.000000
vn 0.000000 1.000000 0.000000
vn 0.000000 1.000000 0.000000
vn 0.000000 1.000000 0.000001
vn 0.000000 1.000000 0.000001
vn 0.000000 0.000000 1.000000
vn 0.000000 0.000000 1.000000
vn 0.000000 0.000000 1.000000
vn 0.000000 0.000000 1.000000
vn 0.000000 1.000000 0.000000
vn 0.000000 1.000000 0.000000
vn 0.000000 1.000000 0.000000
vn 0.000000 1.000000 0.000000
vn 0.000000 0.000000 -1.000000
vn 0.000000 0.000000 -1.000000
vn 0.000000 0.000000 -1.000000
vn 0.000000 0.000000 -1.000000
vn 0.000000 -1.000000 0.000000
vn 0.000000 -1.000000 0.000000
vn 0.000000 -1.000000 0.000000
vn 0.000000 -1.000000 0.000000
vn 0.000000 0.000000 1.000000
vn 0.000000 0.000000 1.000000
vn 0.000000 0.000000 1.000000
vn 0.000000 0.000000 1.000000
vn 1.000000 0.000000 0.000000
vn 1.000000 0.000000 0.000000
vn 1.000000 0.000000 0.000000
vn 1.000000 0.000000 0.000000
vn 0.000000 0.000000 -1.000000
vn 0.000000 0.000000 -1.000000
vn 0.000000 0.000000 -1.000000
vn 0.000000 0.000000 -1.000000
vn -1.000000 0.000000 0.000000
vn -1.000000 0.000000 0.000000
vn -1.000000 0.000000 0.000000
vn -1.000000 0.000000 0.000000
vn 1.000000 0.000000 0.000000
vn 1.000000 0.000000 0.000000
vn 1.000000 0.000000 0.000000
vn 1.000000 0.000000 0.000000
vn 0.000000 -1.000000 0.000002
vn 0.000000 -1.000000 0.000000
vn 0.000000 -1.000000 0.000002
vn 0.000000 -1.000000 0.000000
vn 0.000000 -1.000000 -0.000003
vn 0.000000 -1.000000 -0.000003
vn 0.000000 -1.000000 -0.000000
vn 0.000000 -1.000000 0.000000
vn 0.000000 0.050388 0.998730
vn 0.000000 0.044669 0.999002
vn 0.000000 0.000000 1.000000
vn 0.000000 0.000000 1.000000
vn 1.000000 0.000000 0.000000
vn 1.000000 -0.000000 0.000000
vn 1.000000 0.000000 0.000000
vn 1.000000 0.000000 0.000000
vn 0.989272 0.146087 0.000000
vn 1.000000 0.000000 0.000000
vn 1.000000 0.000000 0.000000
vn 1.000000 -0.000000 0.000000
vn 1.000000 -0.000000 0.000000
vn 0.976614 0.215002 0.000000
vn 1.000000 0.000000 0.000000
vn 1.000000 -0.000000 0.000000
vn 0.000000 0.000000 -1.000000
vn 0.000000 0.115951 -0.993255
vn 0.000000 0.000000 -1.000000
vn 0.000000 0.111544 -0.993759
vn 0.000000 0.000000 -1.000000
vn 0.000000 0.000000 -1.000000
vn 0.000000 0.000000 -1.000000
vn 0.000000 0.000000 -1.000000
vn 0.000000 0.000000 -1.000000
vn 0.000000 0.000000 -1.000000
vn 0.000000 0.000000 -1.000000
vn 0.000000 0.000000 -1.000000
vn 0.000000 0.000000 -1.000000
vn 0.000000 0.000000 -1.000000
vn 0.000000 0.000000 -1.000000
vn 0.000000 0.000000 -1.000000
vn -0.998730 0.050388 0.000000
vn -0.998517 0.054451 0.000000
vn -1.000000 0.000000 0.000000
vn -1.000000 0.000000 0.000000
vn -1.000000 0.000000 0.000000
vn -1.000000 0.000000 0.000000
vn -1.000000 0.000000 0.000000
vn -1.000000 0.000000 0.000000
vn 0.000000 0.036375 0.999338
vn 0.000000 -0.036374 0.999338
vn 0.000000 1.000000 0.000000
vn 0.000000 1.000000 0.000000
vn 0.000000 1.000000 0.000006
vn 0.000000 1.000000 0.000004
vn 0.000000 1.000000 0.000001
vn 0.000000 1.000000 0.000000
vn 0.999338 0.036375 0.000000
vn 0.999338 -0.036374 0.000000
vn 0.000000 -1.000000 0.000000
vn 0.000000 -1.000000 0.000002
vn 0.000000 -1.000000 0.000017
vn 0.000000 -1.000000 0.000012
vn 0.000000 -1.000000 0.000000
vn 0.000000 -1.000000 0.000000
vn 0.000000 0.000000 1.000000
vn 0.000000 0.000000 1.000000
vn 0.000000 0.000000 1.000000
vn 0.000000 0.000000 1.000000
vn 0.000000 0.000000 -1.000000
vn 0.000000 0.000000 -1.000000
vn 0.000000 0.000000 -1.000000
vn 0.000000 0.000000 -1.000000
vn 0.000000 -1.000000 0.000000
vn 0.000000 -1.000000 0.000000
vn 0.000000 -1.000000 0.000000
vn 0.000000 -1.000000 0.000000
vn 0.000000 0.000000 1.000000
vn 0.000000 0.000000 1.000000
vn 0.000000 0.000000 1.000000
vn 0.000000 0.000000 1.000000
vn 0.000000 1.000000 0.000000
vn 0.000000 1.000000 0.000000
vn 0.000000 1.000000 0.000000
vn 0.000000 1.000000 0.000000
vn 0.000000 -0.036374 -0.999338
vn 0.000000 0.036375 -0.999338
vn -1.000000 0.000000 0.000000
vn -1.000000 0.000000 0.000000
vn -1.000000 0.000000 0.000000
vn -1.000000 0.000000 0.000000
vn -1.000000 0.000000 0.000000
vn -1.000000 0.000000 0.000000
vn -1.000000 0.000000 0.000000
vn -1.000000 0.000000 0.000000
vn 0.000000 -1.000000 0.000000
vn 0.000000 -1.000000 0.000000
vn 0.000000 -1.000000 0.000000
vn 0.000000 -1.000000 0.000000
vn 1.000000 0.000000 0.000000
vn 1.000000 0.000000 0.000000
vn 1.000000 0.000000 0.000000
vn 1.000000 0.000000 0.000000
vn 0.000000 1.000000 0.000000
vn 0.000000 1.000000 0.000000
vn 0.000000 1.000000 0.000000
vn 0.000000 1.000000 0.000000
vn -1.000000 0.000000 0.000000
vn -1.000000 0.000000 0.000000
vn -1.000000 0.000000 0.000000
vn -1.000000 0.000000 0.000000
vn 0.000000 -1.000000 0.000000
vn 0.000000 -1.000000 0.000000
vn 0.000000 -1.000000 0.000000
vn 0.000000 -1.000000 0.000000
vn 1.000000 0.000000 0.000000
vn 1.000000 0.000000 0.000000
vn 1.000000 0.000000 0.000000
vn 1.000000 0.000000 0.000000
vn 0.000000 1.000000 0.000000
vn 0.000000 1.000000 0.000000
vn 0.000000 1.000000 0.000000
vn 0.000000 1.000000 0.000000
vn -0.999338 0.036375 0.000000
vn -0.999338 -0.036374 0.000000
vn 0.000000 1.000000 0.000000
vn 0.000000 1.000000 0.000000
vn 0.000000 1.000000 0.000000
vn 0.000000 1.000000 0.000000
vn 0.000000 0.000000 1.000000
vn 0.000000 0.000000 1.000000
vn 0.000000 0.000000 1.000000
vn 0.000000 0.000000 1.000000
vn 0.000000 -1.000000 0.000000
vn 0.000000 -1.000000 0.000000
vn 0.000000 -1.000000 0.000000
vn 0.000000 -1.000000 0.000000
vn 0.000000 0.000000 -1.000000
vn 0.000000 0.000000 -1.000000
vn 0.000000 0.000000 -1.000000
vn 0.000000 0.000000 -1.000000
vn -0.000000 -0.155253 0.987875
vn 0.000000 -0.142034 0.989862
vn 1.000000 0.000000 0.000000
vn 1.000000 0.000000 0.000000
vn 1.000000 0.000000 0.000000
vn 1.000000 0.000000 0.000000
vn 0.000000 0.000000 -1.000000
vn 0.000000 0.000000 -1.000000
vn 0.000000 0.000000 -1.000000
vn 0.000000 0.000000 -1.000000
vn 0.999302 -0.037362 0.000000
vn 0.999108 -0.042220 0.000000
vn 1.000000 0.000000 0.000000
vn 1.000000 0.000000 0.000000
vn 1.000000 0.000000 0.000000
vn 1.000000 0.000000 0.000000
vn 0.000000 -0.095697 -0.995411
vn 0.000000 -0.096064 -0.995375
vn 0.000000 0.000000 -1.000000
vn 0.000000 0.000000 -1.000000
vn 0.000000 0.000000 -1.000000
vn 0.000000 0.000000 -1.000000
vn 0.000000 0.000000 -1.000000
vn 0.000000 0.000000 -1.000000
vn 0.000000 0.000000 -1.000000
vn 0.000000 0.000000 -1.000000
vn -0.993350 -0.115135 0.000000
vn -0.990976 -0.134042 0.000000
vn -1.000000 0.000000 0.000000
vn -1.000000 0.000000 0.000000
vn -1.000000 0.000000 0.000000
vn -1.000000 0.000000 0.000000
vn 0.000000 0.000000 1.000000
vn -0.000000 0.000000 1.000000
vn 0.000000 0.000000 1.000000
vn 0.000000 0.000000 1.000000
vn -0.000000 0.000000 1.000000
vn 0.000000 0.000000 1.000000
vn 0.000000 0.000000 1.000000
vn 0.000000 0.000000 1.000000
vn 0.000000 0.000000 1.000000
vn 0.000000 0.000000 1.000000
vn 1.000000 0.000000 0.000000
vn 1.000000 0.000000 0.000000
vn 0.000000 0.000000 -1.000000
vn 0.000000 0.000000 -1.000000
vn 0.000000 0.000000 -1.000000
vn 0.000000 0.000000 -1.000000
vn 0.000000 0.000000 -1.000000
vn 0.000000 0.000000 -1.000000
vn -1.000000 0.000000 0.000000
vn -1.000000 0.000000 0.000000
vn -1.000000 0.000000 0.000000
vn -1.000000 0.000000 0.000000
vn -1.000000 -0.000000 0.000000
vn -1.000000 0.000000 0.000000
vn -1.000000 0.000000 0.000000
vn -1.000000 -0.000000 0.000000
vn -1.000000 0.000000 0.000000
vn -1.000000 -0.000000 0.000000
vn -1.000000 -0.000000 0.000000
vn -1.000000 0.000000 0.000000
vn -1.000000 0.000000 0.000000
vn -1.000000 0.000000 0.000000
vn 0.000000 1.000000 0.000000
vn 0.000000 1.000000 0.000000
vn 0.000000 1.000000 0.000000
vn 0.000000 1.000000 0.000000
vn 0.000000 1.000000 0.000000
vn 0.000000 1.000000 0.000000
vn 1.000000 0.000000 0.000000
vn 1.000000 0.000000 0.000000
vn 1.000000 0.000000 0.000000
vn 1.000000 0.000000 0.000000
vn 0.000000 -1.000000 0.000000
vn 0.000000 -1.000000 0.000000
vn 0.000000 -1.000000 0.000000
vn 0.000000 -1.000000 0.000000
vn 0.000000 -1.000000 0.000000
vn 0.000000 -1.000000 0.000000
vn 0.000000 -1.000000 0.000000
vn 0.000000 -1.000000 0.000000
vn 0.000000 -1.000000 0.000000
vn 0.000000 -1.000000 0.000000
vn 0.000000 1.000000 0.000000
vn 0.000000 1.000000 0.000000
vn 0.000000 1.000000 0.000000
vn 0.000000 1.000000 0.000000
vn 1.000000 0.000000 0.000000
vn 1.000000 0.000000 0.000000
vn 1.000000 0.000000 0.000000
vn 1.000000 0.000000 0.000000
vn 0.000000 -1.000000 0.000000
vn 0.000000 -1.000000 0.000000
vn 0.000000 -1.000000 0.000000
vn 0.000000 -1.000000 0.000000
vn -1.000000 0.000000 0.000000
vn -1.000000 0.000000 0.000000
vn -1.000000 0.000000 0.000000
vn -1.000000 0.000000 0.000000
vn -1.000000 0.000000 0.000000
vn -1.000000 0.000000 0.000000
vn -1.000000 0.000000 0.000000
vn -1.000000 0.000000 0.000000
vn 0.000000 -1.000000 0.000000
vn 0.000000 -1.000000 0.000000
vn 0.000000 -1.000000 0.000000
vn 0.000000 -1.000000 0.000000
vn 1.000000 0.000000 0.000000
vn 1.000000 0.000000 0.000000
vn 1.000000 0.000000 0.000000
vn 1.000000 0.000000 0.000000
vn 0.000000 1.000000 0.000000
vn 0.000000 1.000000 0.000000
vn 0.000000 1.000000 0.000000
vn 0.000000 1.000000 0.000000
vn 0.000000 0.000000 -1.000000
vn 0.000000 0.000000 -1.000000
vn 0.000000 0.000000 -1.000000
vn 0.000000 0.000000 -1.000000
vn 0.000000 1.000000 0.000000
vn 0.000000 1.000000 0.000000
vn 0.000000 1.000000 0.000000
vn 0.000000 1.000000 0.000000
vn 0.000000 0.000000 1.000000
vn 0.000000 0.000000 1.000000
vn 0.000000 0.000000 1.000000
vn 0.000000 0.000000 1.000000
vn 0.000000 -1.000000 0.000000
vn 0.000000 -1.000000 0.000000
vn 0.000000 -1.000000 0.000000
vn 0.000000 -1.000000 0.000000
vn 0.000000 0.000000 -1.000000
vn 0.000000 0.000000 -1.000000
vn 0.000000 0.000000 -1.000000
vn 0.000000 0.000000 -1.000000
vn 0.000000 1.000000 0.000000
vn 0.000000 1.000000 0.000000
vn 0.000000 1.000000 0.000000
vn 0.000000 1.000000 0.000000
vn 0.000000 0.000000 1.000000
vn 0.000000 0.000000 1.000000
vn 0.000000 0.000000 1.000000
vn 0.000000 0.000000 1.000000
vn 0.000000 -1.000000 0.000000
vn 0.000000 -1.000000 0.000000
vn 0.000000 -1.000000 0.000000
vn 0.000000 -1.000000 0.000000
vn 0.000000 0.000000 -1.000000
vn 0.000000 0.000000 -1.000000
vn 0.000000 0.000000 -1.000000
vn 0.000000 0.000000 -1.000000
vn -1.000000 0.000000 0.000000
vn -1.000000 0.000000 0.000000
vn -1.000000 0.000000 0.000000
vn -1.000000 0.000000 0.000000
vn 0.000000 0.000000 1.000000
vn 0.000000 0.000000 1.000000
vn 0.000000 0.000000 1.000000
vn 0.000000 0.000000 1.000000
vn 0.000000 0.000000 1.000000
vn 0.000000 0.000000 1.000000
vn 0.000000 0.000000 1.000000
vn 0.000000 0.000000 1.000000
vn 0.000000 0.000000 -1.000000
vn 0.000000 0.000000 -1.000000
vn 0.000000 0.000000 -1.000000
vn 0.000000 0.000000 -1.000000
vn -1.000000 0.000000 0.000000
vn -1.000000 0.000000 0.000000
vn -1.000000 0.000000 0.000000
vn -1.000000 0.000000 0.000000
vn -1.000000 0.000000 0.000000
vn -1.000000 0.000000 0.000000
vn -1.000000 0.000000 0.000000
vn -1.000000 0.000000 0.000000
vn -1.000000 0.000000 0.000000
vn -1.000000 0.000000 0.000000
vn -1.000000 0.000000 0.000000
vn -1.000000 0.000000 0.000000
vn 1.000000 0.000000 0.000000
vn 1.000000 0.000000 0.000000
vn 1.000000 0.000000 0.000000
vn 1.000000 0.000000 0.000000
vn 0.000000 -1.000000 0.000000
vn 0.000000 -1.000000 0.000000
vn 0.000000 -1.000000 0.000000
vn 0.000000 -1.000000 0.000000
vn 0.000000 0.000000 -1.000000
vn 0.000000 0.000000 -1.000000
vn 0.000000 0.000000 -1.000000
vn 0.000000 0.000000 -1.000000
vn 0.000000 0.000000 1.000000
vn 0.000000 0.000000 1.000000
vn 0.000000 0.000000 1.000000
vn 0.000000 0.000000 1.000000
vn -1.000000 0.000000 0.000000
vn -1.000000 0.000000 0.000000
vn -1.000000 0.000000 0.000000
vn -1.000000 0.000000 0.000000
vn 1.000000 0.000000 0.000000
vn 1.000000 0.000000 0.000000
vn 1.000000 0.000000 0.000000
vn 1.000000 0.000000 0.000000
vn 0.000000 -1.000000 0.000000
vn 0.000000 -1.000000 0.000000
vn 0.000000 -1.000000 0.000000
vn 0.000000 -1.000000 0.000000
vn 0.000000 0.000000 -1.000000
vn 0.000000 0.000000 -1.000000
vn 0.000000 0.000000 -1.000000
vn 0.000000 0.000000 -1.000000
vn 0.000000 0.000000 1.000000
vn 0.000000 0.000000 1.000000
vn 0.000000 0.000000 1.000000
vn 0.000000 0.000000 1.000000
vn 0.000000 0.000000 1.000000
vn 0.000000 0.000000 1.000000
vn 0.000000 0.000000 1.000000
vn 0.000000 0.000000 1.000000
vn 0.000000 0.000000 -1.000000
vn 0.000000 0.000000 -1.000000
vn 0.000000 0.000000 -1.000000
vn 0.000000 0.000000 -1.000000
vn 0.000000 -1.000000 0.000000
vn 0.000000 -1.000000 0.000000
vn 0.000000 -1.000000 0.000000
vn 0.000000 -1.000000 0.000000
vn 1.000000 0.000000 0.000000
vn 1.000000 0.000000 0.000000
vn 1.000000 0.000000 0.000000
vn 1.000000 0.000000 0.000000
vn -1.000000 0.000000 0.000000
vn -1.000000 0.000000 0.000000
vn -1.000000 0.000000 0.000000
vn -1.000000 0.000000 0.000000
vn 0.000000 0.000000 1.000000
vn 0.000000 0.000000 1.000000
vn 0.000000 0.000000 1.000000
vn 0.000000 0.000000 1.000000
vn 0.000000 0.000000 -1.000000
vn 0.000000 0.000000 -1.000000
vn 0.000000 0.000000 -1.000000
vn 0.000000 0.000000 -1.000000
vn 0.000000 -1.000000 0.000000
vn 0.000000 -1.000000 0.000000
vn 0.000000 -1.000000 0.000000
vn 0.000000 -1.000000 0.000000
vn 1.000000 0.000000 0.000000
vn 1.000000 0.000000 0.000000
vn 1.000000 0.000000 0.000000
vn 1.000000 0.000000 0.000000
vn -1.000000 0.000000 0.000000
vn -1.000000 0.000000 0.000000
vn -1.000000 0.000000 0.000000
vn -1.000000 0.000000 0.000000
vn 0.000000 1.000000 0.000000
vn 0.000000 1.000000 0.000000
vn 0.000000 1.000000 -0.000001
vn 0.000000 1.000000 -0.000006
vn 0.000000 1.000000 0.000002
vn 0.000000 1.000000 -0.000000
vn 0.000000 1.000000 -0.000004
vn 0.000000 1.000000 0.000000
vn 0.000000 1.000000 0.000000
vn 0.000000 1.000000 0.000000
vn -0.951057 0.000000 0.309016
vn -0.951057 0.000000 0.309016
vn -0.951057 0.000000 0.309016
vn -0.951057 0.000000 0.309016
vn -0.587785 0.000000 0.809017
vn -0.587785 0.000000 0.809017
vn -0.587785 0.000000 0.809017
vn -0.587785 0.000000 0.809017
vn 0.000000 0.000000 1.000000
vn 0.000000 0.000000 1.000000
vn 0.000000 0.000000 1.000000
vn 0.000000 0.000000 1.000000
vn 0.587785 0.000000 0.809017
vn 0.587785 0.000000 0.809017
vn 0.587785 0.000000 0.809017
vn 0.587785 0.000000 0.809017
vn 0.951057 0.000000 0.309016
vn 0.951057 0.000000 0.309016
vn 0.951057 0.000000 0.309016
vn 0.951057 0.000000 0.309016
vn 0.951057 0.000000 -0.309016
vn 0.951057 0.000000 -0.309016
vn 0.951057 0.000000 -0.309016
vn 0.951057 0.000000 -0.309016
vn 0.587785 0.000000 -0.809017
vn 0.587785 0.000000 -0.809017
vn 0.587785 0.000000 -0.809017
vn 0.587785 0.000000 -0.809017
vn 0.000000 0.000000 -1.000000
vn 0.000000 0.000000 -1.000000
vn 0.000000 0.000000 -1.000000
vn 0.000000 0.000000 -1.000000
vn -0.587784 0.000000 -0.809018
vn -0.587785 0.000000 -0.809017
vn -0.587784 0.000000 -0.809018
vn -0.587785 0.000000 -0.809017
vn -0.951057 0.000000 -0.309016
vn -0.951057 0.000000 -0.309016
vn -0.951057 0.000000 -0.309016
vn -0.951057 0.000000 -0.309016
vn 0.000000 1.000000 -0.000004
vn 0.000000 1.000000 0.000006
vn 0.000000 1.000000 -0.000005
vn 0.000000 1.000000 0.000002
vn 0.000000 1.000000 0.000000
vn 0.000000 1.000000 -0.000002
vn 0.000000 1.000000 -0.000001
vn 0.000000 1.000000 0.000000
vn 0.000000 1.000000 -0.000002
vn 0.000000 1.000000 0.000001
vn 0.000000 1.000000 -0.000006
vn 0.000000 1.000000 -0.000002
vn 0.000000 1.000000 0.000004
vn 0.000000 1.000000 0.000005
vn 0.000000 1.000000 0.000000
vn 0.000000 1.000000 0.000002
vn 0.000000 1.000000 0.000004
vn 0.000000 1.000000 0.000005
vn 0.000000 1.000000 -0.000004
vn 0.000000 1.000000 -0.000002
vn 0.951057 0.000000 -0.309017
vn 0.951057 0.000000 -0.309017
vn 0.951057 0.000000 -0.309017
vn 0.951057 0.000000 -0.309017
vn 0.587785 0.000000 -0.809017
vn 0.587785 0.000000 -0.809017
vn 0.587785 0.000000 -0.809017
vn 0.587785 0.000000 -0.809017
vn 0.000000 0.000000 -1.000000
vn 0.000000 0.000000 -1.000000
vn 0.000000 0.000000 -1.000000
vn 0.000000 0.000000 -1.000000
vn -0.587785 0.000000 -0.809017
vn -0.587785 0.000000 -0.809017
vn -0.587785 0.000000 -0.809017
vn -0.587785 0.000000 -0.809017
vn -0.951057 0.000000 -0.309017
vn -0.951057 0.000000 -0.309017
vn -0.951057 0.000000 -0.309017
vn -0.951057 0.000000 -0.309017
vn -0.951057 0.000000 0.309017
vn -0.951057 0.000000 0.309017
vn -0.951057 0.000000 0.309017
vn -0.951057 0.000000 0.309017
vn -0.587785 0.000000 0.809017
vn -0.587785 0.000000 0.809017
vn -0.587785 0.000000 0.809017
vn -0.587785 0.000000 0.809017
vn 0.000000 0.000000 1.000000
vn 0.000000 0.000000 1.000000
vn 0.000000 0.000000 1.000000
vn 0.000000 0.000000 1.000000
vn 0.587785 0.000000 0.809017
vn 0.587785 0.000000 0.809017
vn 0.587785 0.000000 0.809017
vn 0.587785 0.000000 0.809017
vn 0.951057 0.000000 0.309017
vn 0.951057 0.000000 0.309017
vn 0.951057 0.000000 0.309017
vn 0.951057 0.000000 0.309017
s off
g Chimney_2
usemtl lambert3SG
f 1/554/1 2/555/2 3/556/3
f 4/548/4 1/549/5 3/550/6
f 5/551/7 4/552/8 3/553/9
f 2/545/10 5/546/11 3/547/12
s 1
f 2/541/13 13/561/14 5/544/15
f 13/561/14 10/564/16 5/544/15
f 2/541/13 1/542/17 13/561/14
f 13/561/14 1/542/17 12/562/18
f 1/542/17 4/543/19 6/560/20
f 6/560/20 4/543/19 9/557/21
f 4/543/19 5/544/15 16/566/22
f 16/566/22 5/544/15 15/567/23
f 10/564/16 11/563/24 5/544/15
f 12/562/18 1/542/17 11/563/24
f 9/557/21 4/543/19 8/558/25
f 15/567/23 5/544/15 14/568/26
f 6/560/20 7/559/27 1/542/17
f 1/542/17 7/559/27 11/563/24
f 7/559/27 8/558/25 11/563/24
f 16/566/22 17/565/28 4/543/19
f 4/543/19 17/565/28 8/558/25
f 17/565/28 14/568/26 8/558/25
f 8/558/25 14/568/26 11/563/24
f 19/571/29 20/570/30 5/544/15
f 5/544/15 20/570/30 14/568/26
f 20/570/30 21/569/31 14/568/26
f 19/571/29 5/544/15 18/572/32
f 5/544/15 11/563/24 18/572/32
f 18/572/32 11/563/24 21/569/31
f 11/563/24 14/568/26 21/569/31
s 4
f 28/538/33 22/1/34 27/539/35
f 22/1/34 23/2/36 27/539/35
f 27/539/35 23/2/36 26/540/37
f 26/540/37 23/2/36 35/531/38
f 28/538/33 29/537/39 22/1/34
f 22/1/34 29/537/39 25/4/40
f 29/537/39 30/536/41 25/4/40
f 30/536/41 31/535/42 25/4/40
f 25/4/40 31/535/42 24/3/43
f 31/535/42 32/534/44 24/3/43
f 32/534/44 33/533/45 24/3/43
f 33/533/45 34/532/46 24/3/43
f 24/3/43 34/532/46 23/2/36
f 34/532/46 35/531/38 23/2/36
s 5
f 36/89/47 37/90/48 22/92/49
f 22/92/49 37/90/48 23/91/50
s 6
f 37/53/51 38/54/52 23/56/53
f 23/56/53 38/54/52 24/55/54
s 7
f 38/93/55 39/94/56 24/96/57
f 24/96/57 39/94/56 25/95/58
s 8
f 39/57/59 42/382/60 25/60/61
f 42/382/60 43/381/62 25/60/61
f 25/60/61 43/381/62 22/59/63
f 43/381/62 40/384/64 22/59/63
f 22/59/63 40/384/64 36/58/65
f 40/384/64 41/383/66 36/58/65
f 36/58/65 41/383/66 39/57/59
f 41/383/66 42/382/60 39/57/59
s 9
f 37/23/67 36/17/68 45/24/69
f 45/24/69 36/17/68 44/20/70
f 38/21/71 37/23/67 46/22/72
f 46/22/72 37/23/67 45/24/69
f 39/18/73 38/21/71 47/19/74
f 47/19/74 38/21/71 46/22/72
f 36/17/68 39/18/73 44/20/70
f 44/20/70 39/18/73 47/19/74
s 10
f 48/354/75 49/355/76 40/376/77
f 40/376/77 49/355/76 41/375/78
s 11
f 41/374/79 49/338/80 42/373/81
f 42/373/81 49/338/80 50/339/82
s 12
f 42/372/83 50/358/84 43/371/85
f 43/371/85 50/358/84 51/359/86
s 13
f 43/370/87 51/342/88 40/369/89
f 40/369/89 51/342/88 48/343/90
s 14
f 52/85/91 53/86/92 44/88/93
f 44/88/93 53/86/92 45/87/94
s 15
f 53/49/95 54/50/96 45/52/97
f 45/52/97 54/50/96 46/51/98
s 16
f 54/81/99 55/82/100 46/84/101
f 46/84/101 55/82/100 47/83/102
s 17
f 55/45/103 52/46/104 47/48/105
f 47/48/105 52/46/104 44/47/106
s 18
f 48/345/107 51/346/108 49/348/109
f 49/348/109 51/346/108 50/347/110
s 19
f 56/10/111 57/13/112 52/11/113
f 52/11/113 57/13/112 53/14/114
f 57/13/112 58/15/115 53/14/114
f 53/14/114 58/15/115 54/16/116
f 58/15/115 59/9/117 54/16/116
f 54/16/116 59/9/117 55/12/118
f 59/9/117 56/10/111 55/12/118
f 55/12/118 56/10/111 52/11/113
s 20
f 60/68/119 61/67/120 56/70/121
f 56/70/121 61/67/120 57/69/122
s 21
f 63/259/123 58/33/124 62/260/125
f 58/33/124 57/34/126 62/260/125
f 57/34/126 61/32/127 70/225/128
f 57/34/126 70/225/128 62/260/125
f 70/225/128 61/32/127 69/226/129
f 62/260/125 70/225/128 66/257/130
f 70/225/128 67/228/131 66/257/130
f 61/32/127 64/31/132 69/226/129
f 69/226/129 64/31/132 68/227/133
f 64/31/132 65/258/134 68/227/133
f 68/227/133 65/258/134 67/228/131
f 67/228/131 65/258/134 66/257/130
s 23
f 65/263/135 64/78/136 71/264/137
f 64/78/136 72/77/138 71/264/137
f 72/77/138 59/79/139 79/287/140
f 79/287/140 59/79/139 78/288/141
f 59/79/139 58/80/142 78/288/141
f 78/288/141 58/80/142 74/312/143
f 74/312/143 75/311/144 78/288/141
f 78/288/141 75/311/144 81/285/145
f 75/311/144 76/310/146 81/285/145
f 74/312/143 58/80/142 77/309/147
f 58/80/142 63/262/148 77/309/147
f 77/309/147 63/262/148 76/310/146
f 63/262/148 73/261/149 76/310/146
f 76/310/146 73/261/149 81/285/145
f 81/285/145 73/261/149 80/286/150
f 73/261/149 71/264/137 80/286/150
f 71/264/137 72/77/138 80/286/150
f 72/77/138 79/287/140 80/286/150
s 25
f 72/42/151 60/41/152 59/44/153
f 59/44/153 82/380/154 56/43/155
f 82/380/154 83/379/156 56/43/155
f 56/43/155 83/379/156 60/41/152
f 83/379/156 84/378/157 60/41/152
f 84/378/157 85/377/158 60/41/152
f 60/41/152 85/377/158 59/44/153
f 85/377/158 82/380/154 59/44/153
s 20
f 86/66/159 87/65/160 60/68/119
f 60/68/119 87/65/160 61/67/120
s 28
f 62/256/161 88/229/162 63/254/163
f 88/229/162 89/230/164 63/254/163
f 89/230/164 90/231/165 63/254/163
f 90/231/165 73/255/166 63/254/163
s 21
f 87/30/167 91/29/168 61/32/127
f 61/32/127 91/29/168 64/31/132
s 30
f 71/251/169 92/232/170 65/249/171
f 92/232/170 93/233/172 65/249/171
f 93/233/172 94/234/173 65/249/171
f 94/234/173 66/250/174 65/249/171
s 31
f 66/248/175 94/239/176 62/247/177
f 62/247/177 94/239/176 88/240/178
s 32
f 67/220/179 95/215/180 68/219/181
f 68/219/181 95/215/180 96/216/182
s 33
f 68/218/183 96/207/184 69/217/185
f 69/217/185 96/207/184 97/208/186
s 34
f 69/224/187 97/213/188 70/223/189
f 70/223/189 97/213/188 98/214/190
s 35
f 70/222/191 98/205/192 67/221/193
f 67/221/193 98/205/192 95/206/194
s 23
f 72/77/138 64/78/136 99/75/195
f 99/75/195 64/78/136 91/76/196
s 36
f 73/253/197 90/245/198 71/252/199
f 71/252/199 90/245/198 92/246/200
s 37
f 78/280/201 100/275/202 79/279/203
f 79/279/203 100/275/202 101/276/204
s 38
f 79/278/205 101/267/206 80/277/207
f 80/277/207 101/267/206 102/268/208
s 39
f 80/284/209 102/273/210 81/283/211
f 81/283/211 102/273/210 103/274/212
s 40
f 81/282/213 103/265/214 78/281/215
f 78/281/215 103/265/214 100/266/216
s 41
f 74/304/217 104/299/218 75/303/219
f 75/303/219 104/299/218 105/300/220
s 42
f 75/302/221 105/291/222 76/301/223
f 76/301/223 105/291/222 106/292/224
s 43
f 76/308/225 106/297/226 77/307/227
f 77/307/227 106/297/226 107/298/228
s 44
f 77/306/229 107/289/230 74/305/231
f 74/305/231 107/289/230 104/290/232
s 25
f 99/40/233 86/39/234 72/42/151
f 72/42/151 86/39/234 60/41/152
s 46
f 82/362/235 108/340/236 83/361/237
f 83/361/237 108/340/236 109/337/238
s 47
f 83/368/239 109/356/240 84/367/241
f 84/367/241 109/356/240 110/353/242
s 48
f 84/366/243 110/344/244 85/365/245
f 85/365/245 110/344/244 111/341/246
s 49
f 85/364/247 111/360/248 82/363/249
f 82/363/249 111/360/248 108/357/250
s 20
f 112/64/251 113/63/252 86/66/159
f 86/66/159 113/63/252 87/65/160
s 51
f 94/241/253 93/242/254 88/244/255
f 88/244/255 93/242/254 89/243/256
s 52
f 93/235/257 92/236/258 89/238/259
f 89/238/259 92/236/258 90/237/260
s 21
f 113/28/261 114/27/262 87/30/167
f 87/30/167 114/27/262 91/29/168
s 54
f 97/209/263 96/210/264 98/212/265
f 98/212/265 96/210/264 95/211/266
s 23
f 99/75/195 91/76/196 115/71/267
f 115/71/267 91/76/196 114/72/268
s 55
f 102/269/269 101/270/270 103/272/271
f 103/272/271 101/270/270 100/271/272
s 56
f 106/293/273 105/294/274 107/296/275
f 107/296/275 105/294/274 104/295/276
s 25
f 115/38/277 112/37/278 99/40/233
f 99/40/233 112/37/278 86/39/234
s 58
f 111/349/279 110/350/280 108/352/281
f 108/352/281 110/350/280 109/351/282
s 20
f 113/63/252 112/64/251 123/203/283
f 123/203/283 112/64/251 122/204/284
f 113/63/252 123/203/283 121/62/285
f 123/203/283 124/202/286 121/62/285
f 112/64/251 116/130/287 122/204/284
f 122/204/284 116/130/287 125/201/288
f 116/130/287 117/129/289 125/201/288
f 119/131/290 120/61/291 118/132/292
f 120/61/291 121/62/285 118/132/292
f 121/62/285 124/202/286 118/132/292
f 118/132/292 124/202/286 117/129/289
f 124/202/286 125/201/288 117/129/289
s 21
f 121/25/293 126/26/294 113/28/261
f 113/28/261 126/26/294 114/27/262
s 23
f 115/71/267 128/336/295 127/74/296
f 128/336/295 129/335/297 127/74/296
f 115/71/267 114/72/268 128/336/295
f 128/336/295 114/72/268 131/333/298
f 114/72/268 126/73/299 131/333/298
f 131/333/298 126/73/299 130/334/300
f 126/73/299 127/74/296 130/334/300
f 129/335/297 130/334/300 127/74/296
s 25
f 116/127/301 112/37/278 132/128/302
f 112/37/278 135/155/303 132/128/302
f 135/155/303 136/154/304 132/128/302
f 112/37/278 139/179/305 135/155/303
f 139/179/305 140/178/306 135/155/303
f 135/155/303 140/178/306 134/156/307
f 140/178/306 141/177/308 134/156/307
f 112/37/278 115/38/277 139/179/305
f 139/179/305 115/38/277 138/180/309
f 115/38/277 127/35/310 138/180/309
f 138/180/309 127/35/310 141/177/308
f 127/35/310 120/36/311 141/177/308
f 119/126/312 133/125/313 120/36/311
f 120/36/311 133/125/313 141/177/308
f 133/125/313 132/128/302 141/177/308
f 136/154/304 137/153/314 132/128/302
f 132/128/302 137/153/314 141/177/308
f 137/153/314 134/156/307 141/177/308
s 61
f 132/122/315 142/98/316 116/120/317
f 142/98/316 143/99/318 116/120/317
f 143/99/318 144/97/319 116/120/317
f 144/97/319 117/121/320 116/120/317
s 62
f 117/124/321 144/110/322 118/123/323
f 118/123/323 144/110/322 145/109/324
s 63
f 118/119/325 145/102/326 119/117/327
f 145/102/326 146/100/328 119/117/327
f 146/100/328 147/101/329 119/117/327
f 147/101/329 133/118/330 119/117/327
s 64
f 127/5/331 126/6/332 120/8/333
f 120/8/333 126/6/332 121/7/334
s 65
f 122/198/335 148/182/336 123/197/337
f 123/197/337 148/182/336 149/181/338
s 66
f 123/200/339 149/190/340 124/199/341
f 124/199/341 149/190/340 150/189/342
s 67
f 124/194/343 150/184/344 125/193/345
f 125/193/345 150/184/344 151/183/346
s 68
f 125/196/347 151/192/348 122/195/349
f 122/195/349 151/192/348 148/191/350
s 69
f 128/328/351 152/323/352 129/327/353
f 129/327/353 152/323/352 153/324/354
s 70
f 129/326/355 153/315/356 130/325/357
f 130/325/357 153/315/356 154/316/358
s 71
f 130/332/359 154/321/360 131/331/361
f 131/331/361 154/321/360 155/322/362
s 72
f 131/330/363 155/313/364 128/329/365
f 128/329/365 155/313/364 152/314/366
s 73
f 133/116/367 147/103/368 132/115/369
f 132/115/369 147/103/368 142/104/370
s 74
f 138/174/371 156/158/372 139/173/373
f 139/173/373 156/158/372 157/157/374
s 75
f 139/176/375 157/166/376 140/175/377
f 140/175/377 157/166/376 158/165/378
s 76
f 140/170/379 158/160/380 141/169/381
f 141/169/381 158/160/380 159/159/382
s 77
f 141/172/383 159/168/384 138/171/385
f 138/171/385 159/168/384 156/167/386
s 78
f 134/150/387 160/134/388 135/149/389
f 135/149/389 160/134/388 161/133/390
s 79
f 135/152/391 161/142/392 136/151/393
f 136/151/393 161/142/392 162/141/394
s 80
f 136/146/395 162/136/396 137/145/397
f 137/145/397 162/136/396 163/135/398
s 81
f 137/148/399 163/144/400 134/147/401
f 134/147/401 163/144/400 160/143/402
s 82
f 143/111/403 142/112/404 146/114/405
f 146/114/405 142/112/404 147/113/406
s 83
f 146/105/407 145/106/408 143/108/409
f 143/108/409 145/106/408 144/107/410
s 84
f 151/185/411 150/186/412 148/188/413
f 148/188/413 150/186/412 149/187/414
s 85
f 154/317/415 153/318/416 155/320/417
f 155/320/417 153/318/416 152/319/418
s 86
f 159/161/419 158/162/420 156/164/421
f 156/164/421 158/162/420 157/163/422
s 87
f 163/137/423 162/138/424 160/140/425
f 160/140/425 162/138/424 161/139/426
s 88
f 19/574/427 18/573/428 165/428/429
f 165/428/429 18/573/428 164/427/430
s 89
f 21/576/431 20/575/432 167/426/433
f 167/426/433 20/575/432 166/425/434
s 90
f 164/421/435 167/422/436 165/424/437
f 165/424/437 167/422/436 166/423/438
s 91
f 18/578/439 21/577/440 164/432/441
f 164/432/441 21/577/440 167/431/442
s 92
f 20/580/443 19/579/444 166/430/445
f 166/430/445 19/579/444 165/429/446
s 93
f 15/582/447 14/581/448 169/404/449
f 169/404/449 14/581/448 168/403/450
s 94
f 17/584/451 16/583/452 171/402/453
f 171/402/453 16/583/452 170/401/454
s 95
f 168/397/455 171/398/456 169/400/457
f 169/400/457 171/398/456 170/399/458
s 96
f 14/586/459 17/585/460 168/408/461
f 168/408/461 17/585/460 171/407/462
s 97
f 16/588/463 15/587/464 170/406/465
f 170/406/465 15/587/464 169/405/466
s 98
f 11/590/467 10/589/468 173/394/469
f 173/394/469 10/589/468 172/393/470
s 99
f 13/592/471 12/591/472 175/396/473
f 175/396/473 12/591/472 174/395/474
s 100
f 175/385/475 174/386/476 172/388/477
f 172/388/477 174/386/476 173/387/478
s 101
f 12/594/479 11/593/480 174/390/481
f 174/390/481 11/593/480 173/389/482
s 102
f 10/596/483 13/595/484 172/392/485
f 172/392/485 13/595/484 175/391/486
s 103
f 9/598/487 8/597/488 177/418/489
f 177/418/489 8/597/488 176/417/490
s 104
f 7/600/491 6/599/492 179/420/493
f 179/420/493 6/599/492 178/419/494
s 105
f 179/409/495 178/410/496 176/412/497
f 176/412/497 178/410/496 177/411/498
s 106
f 6/602/499 9/601/500 178/414/501
f 178/414/501 9/601/500 177/413/502
s 107
f 8/604/503 7/603/504 176/416/505
f 176/416/505 7/603/504 179/415/506
s 108
f 180/530/507 181/529/508 189/521/509
f 181/529/508 182/528/510 189/521/509
f 182/528/510 183/527/511 189/521/509
f 183/527/511 184/526/512 189/521/509
f 184/526/512 185/525/513 189/521/509
f 185/525/513 186/524/514 189/521/509
f 186/524/514 187/523/515 189/521/509
f 187/523/515 188/522/516 189/521/509
s 109
f 188/520/517 190/453/518 189/519/519
f 189/519/519 190/453/518 191/454/520
s 110
f 189/518/521 191/465/522 180/517/523
f 180/517/523 191/465/522 192/466/524
s 111
f 180/516/525 192/466/526 181/515/527
f 181/515/527 192/466/526 193/467/528
s 112
f 181/514/529 193/467/530 182/513/531
f 182/513/531 193/467/530 194/468/532
s 113
f 182/512/533 194/456/534 183/511/535
f 183/511/535 194/456/534 195/457/536
s 114
f 183/510/537 195/457/538 184/509/539
f 184/509/539 195/457/538 196/458/540
s 115
f 184/508/541 196/469/542 185/507/543
f 185/507/543 196/469/542 197/470/544
s 116
f 185/506/545 197/470/546 186/505/547
f 186/505/547 197/470/546 198/471/548
s 117
f 186/504/549 198/471/550 187/503/551
f 187/503/551 198/471/550 199/472/552
s 118
f 187/502/553 199/455/554 188/501/555
f 188/501/555 199/455/554 190/453/556
s 119
f 191/433/557 190/434/558 201/436/559
f 201/436/559 190/434/558 200/435/560
f 192/439/561 191/433/557 202/440/562
f 202/440/562 191/433/557 201/436/559
f 193/443/563 192/439/561 203/444/564
f 203/444/564 192/439/561 202/440/562
f 194/447/565 193/443/563 204/448/566
f 204/448/566 193/443/563 203/444/564
f 195/451/567 194/447/565 205/452/568
f 205/452/568 194/447/565 204/448/566
f 196/449/569 195/451/567 206/450/570
f 206/450/570 195/451/567 205/452/568
f 197/445/571 196/449/569 207/446/572
f 207/446/572 196/449/569 206/450/570
f 198/441/573 197/445/571 208/442/574
f 208/442/574 197/445/571 207/446/572
f 199/437/575 198/441/573 209/438/576
f 209/438/576 198/441/573 208/442/574
f 190/434/558 199/437/575 200/435/560
f 200/435/560 199/437/575 209/438/576
s 120
f 33/500/577 201/459/578 34/499/579
f 34/499/579 201/459/578 200/460/580
s 121
f 32/498/581 202/473/582 33/497/583
f 33/497/583 202/473/582 201/474/584
s 122
f 31/496/585 203/475/586 32/495/587
f 32/495/587 203/475/586 202/473/588
s 123
f 30/494/589 204/476/590 31/493/591
f 31/493/591 204/476/590 203/475/592
s 124
f 29/492/593 205/462/594 30/491/595
f 30/491/595 205/462/594 204/463/596
s 125
f 28/490/597 206/464/598 29/489/599
f 29/489/599 206/464/598 205/462/600
s 126
f 27/488/601 207/477/602 28/487/603
f 28/487/603 207/477/602 206/478/604
s 127
f 26/486/605 208/479/606 27/485/607
f 27/485/607 208/479/606 207/477/608
s 128
f 35/484/609 209/480/610 26/483/611
f 26/483/611 209/480/610 208/479/612
s 129
f 34/482/613 200/460/614 35/481/615
f 35/481/615 200/460/614 209/461/616
