%YAML 1.1
%TAG !u! tag:unity3d.com,2011:
--- !u!1045 &1
EditorBuildSettings:
  m_ObjectHideFlags: 0
  serializedVersion: 2
  m_Scenes:
  - enabled: 1
    path: Assets/__Scenes/_Menu.unity
    guid: 36468238709235d4da46527e9760d52d
  - enabled: 1
    path: Assets/__Scenes/_TutorialScene.unity
    guid: d24a38c684c908046af56693a5d094b9
  - enabled: 1
    path: Assets/__Scenes/Level_01_Forest.unity
    guid: bd9511ebd131312409a222d011b475f1
  - enabled: 1
    path: Assets/__Scenes/Level_02_Beach.unity
    guid: 01233348d7ae0bc4d9b60082b6ff57c6
  - enabled: 1
    path: Assets/__Scenes/Level_03_Ranch.unity
    guid: 608ddd815a255cb4eba6b61c7b6f2cd9
  - enabled: 1
    path: Assets/__Scenes/Level_04_Pyramid.unity
    guid: 30ae257ea62aa044fb560219c68a5305
  - enabled: 1
    path: Assets/__Scenes/Level_05_Antarctic.unity
    guid: 446f6684dc4943141a2f60303f8216ec
  - enabled: 1
    path: Assets/__Scenes/Level_06_Graveyard.unity
    guid: e6b3825599ddbc148b02502f6f91ec71
  - enabled: 1
    path: Assets/__Scenes/Level_07_Mars.unity
    guid: 15d6debead960b84cad3ffc70ee2f60a
  m_configObjects: {}
