%YAML 1.1
%TAG !u! tag:unity3d.com,2011:
--- !u!1001 &5713821768379059549
PrefabInstance:
  m_ObjectHideFlags: 0
  serializedVersion: 2
  m_Modification:
    m_TransformParent: {fileID: 0}
    m_Modifications:
    - target: {fileID: 2307487400677340167, guid: 21c7610cc13409544a4da608ffa5c6a1,
        type: 3}
      propertyPath: m_Name
      value: Enemy_Tanky_UFO 2Coin
      objectReference: {fileID: 0}
    - target: {fileID: 5697671474740335639, guid: 21c7610cc13409544a4da608ffa5c6a1,
        type: 3}
      propertyPath: dropAmount
      value: 2
      objectReference: {fileID: 0}
    - target: {fileID: 6819422672355332482, guid: 21c7610cc13409544a4da608ffa5c6a1,
        type: 3}
      propertyPath: m_RootOrder
      value: 0
      objectReference: {fileID: 0}
    - target: {fileID: 6819422672355332482, guid: 21c7610cc13409544a4da608ffa5c6a1,
        type: 3}
      propertyPath: m_LocalPosition.x
      value: 0
      objectReference: {fileID: 0}
    - target: {fileID: 6819422672355332482, guid: 21c7610cc13409544a4da608ffa5c6a1,
        type: 3}
      propertyPath: m_LocalPosition.y
      value: 0
      objectReference: {fileID: 0}
    - target: {fileID: 6819422672355332482, guid: 21c7610cc13409544a4da608ffa5c6a1,
        type: 3}
      propertyPath: m_LocalPosition.z
      value: 0
      objectReference: {fileID: 0}
    - target: {fileID: 6819422672355332482, guid: 21c7610cc13409544a4da608ffa5c6a1,
        type: 3}
      propertyPath: m_LocalRotation.w
      value: 1
      objectReference: {fileID: 0}
    - target: {fileID: 6819422672355332482, guid: 21c7610cc13409544a4da608ffa5c6a1,
        type: 3}
      propertyPath: m_LocalRotation.x
      value: 0
      objectReference: {fileID: 0}
    - target: {fileID: 6819422672355332482, guid: 21c7610cc13409544a4da608ffa5c6a1,
        type: 3}
      propertyPath: m_LocalRotation.y
      value: 0
      objectReference: {fileID: 0}
    - target: {fileID: 6819422672355332482, guid: 21c7610cc13409544a4da608ffa5c6a1,
        type: 3}
      propertyPath: m_LocalRotation.z
      value: 0
      objectReference: {fileID: 0}
    - target: {fileID: 6819422672355332482, guid: 21c7610cc13409544a4da608ffa5c6a1,
        type: 3}
      propertyPath: m_LocalEulerAnglesHint.x
      value: 0
      objectReference: {fileID: 0}
    - target: {fileID: 6819422672355332482, guid: 21c7610cc13409544a4da608ffa5c6a1,
        type: 3}
      propertyPath: m_LocalEulerAnglesHint.y
      value: 0
      objectReference: {fileID: 0}
    - target: {fileID: 6819422672355332482, guid: 21c7610cc13409544a4da608ffa5c6a1,
        type: 3}
      propertyPath: m_LocalEulerAnglesHint.z
      value: 0
      objectReference: {fileID: 0}
    m_RemovedComponents: []
  m_SourcePrefab: {fileID: 100100000, guid: 21c7610cc13409544a4da608ffa5c6a1, type: 3}
