%YAML 1.1
%TAG !u! tag:unity3d.com,2011:
--- !u!114 &11400000
MonoBehaviour:
  m_ObjectHideFlags: 0
  m_CorrespondingSourceObject: {fileID: 0}
  m_PrefabInstance: {fileID: 0}
  m_PrefabAsset: {fileID: 0}
  m_GameObject: {fileID: 0}
  m_Enabled: 1
  m_EditorHideFlags: 0
  m_Script: {fileID: 11500000, guid: 05f77a9c6f724eb418417b2aab91e12a, type: 3}
  m_Name: Level3_Wave2
  m_EditorClassIdentifier: 
  groups:
  - enemyType: {fileID: 7798620149837737290, guid: 0642d9763ccd5c542a3503e42fac5204,
      type: 3}
    numberOfEnemies: 3
    delayBetweenSpawns: 1
    pauseDelayAfterGroup: 1
  - enemyType: {fileID: 2526156778888128033, guid: 7544202037a4f46408677ca1549fbb24,
      type: 3}
    numberOfEnemies: 3
    delayBetweenSpawns: 1
    pauseDelayAfterGroup: 5
